<?xml version="1.0" encoding="UTF-8"?>
<svg width="26px" height="26px" viewBox="0 0 26 26" version="1.1" xmlns="http://www.w3.org/2000/svg" xmlns:xlink="http://www.w3.org/1999/xlink">
    <title>setting icon/常见问题</title>
    <g id="setting-icon/常见问题" stroke="none" stroke-width="1" fill="none" fill-rule="evenodd">
        <path d="M12.9976479,22.8222656 C14.2997312,22.8222656 15.5236896,22.5732422 16.6695229,22.0751953 C17.8153562,21.5771484 18.8244708,20.8919271 19.6968666,20.0195312 C20.5692625,19.1471354 21.2528562,18.1396484 21.7476479,16.9970703 C22.2424396,15.8544922 22.4898354,14.6321615 22.4898354,13.3300781 C22.4898354,12.0279948 22.2424396,10.8056641 21.7476479,9.66308594 C21.2528562,8.52050781 20.5676349,7.51139323 19.6919838,6.63574219 C18.8163328,5.76009115 17.8055906,5.07486979 16.6597573,4.58007812 C15.5139239,4.08528646 14.2899656,3.83789062 12.9878823,3.83789062 C11.6988198,3.83789062 10.4813719,4.08528646 9.33553852,4.58007812 C8.18970519,5.07486979 7.178963,5.76009115 6.30331196,6.63574219 C5.42766091,7.51139323 4.74243956,8.52050781 4.24764789,9.66308594 C3.75285623,10.8056641 3.50546039,12.0279948 3.50546039,13.3300781 C3.50546039,14.6321615 3.75448383,15.8544922 4.25253071,16.9970703 C4.75057758,18.1396484 5.43579894,19.1471354 6.30819477,20.0195312 C7.1805906,20.8919271 8.18970519,21.5771484 9.33553852,22.0751953 C10.4813719,22.5732422 11.702075,22.8222656 12.9976479,22.8222656 Z M12.9976479,21.0742188 C11.9299396,21.0742188 10.9273354,20.8740234 9.98983539,20.4736328 C9.05233539,20.0732422 8.23039529,19.5198568 7.52401508,18.8134766 C6.81763487,18.1070964 6.26587706,17.2851562 5.86874164,16.3476562 C5.47160623,15.4101562 5.27303852,14.4042969 5.27303852,13.3300781 C5.27303852,12.2623698 5.47160623,11.2597656 5.86874164,10.3222656 C6.26587706,9.38476562 6.81763487,8.56119792 7.52401508,7.8515625 C8.23039529,7.14192708 9.05070779,6.58691406 9.98495258,6.18652344 C10.9191974,5.78613281 11.9201739,5.5859375 12.9878823,5.5859375 C14.0686114,5.5859375 15.0760984,5.78613281 16.0103432,6.18652344 C16.944588,6.58691406 17.7665281,7.14192708 18.4761635,7.8515625 C19.1857989,8.56119792 19.740812,9.38476562 20.1412026,10.3222656 C20.5415932,11.2597656 20.7417885,12.2623698 20.7417885,13.3300781 C20.7482989,14.4042969 20.5497312,15.4101562 20.1460854,16.3476562 C19.7424396,17.2851562 19.1890541,18.1070964 18.4859291,18.8134766 C17.7828041,19.5198568 16.9624916,20.0732422 16.0249916,20.4736328 C15.0874916,20.8740234 14.0783771,21.0742188 12.9976479,21.0742188 Z M17.5191323,10.9667969 C17.733976,10.9667969 17.9113849,10.9033203 18.0513588,10.7763672 C18.1913328,10.6494141 18.2613198,10.4817708 18.2613198,10.2734375 C18.2613198,10.0716146 18.1913328,9.90559896 18.0513588,9.77539062 C17.9113849,9.64518229 17.733976,9.58007812 17.5191323,9.58007812 L8.50546039,9.58007812 C8.28410623,9.58007812 8.10344216,9.64518229 7.96346821,9.77539062 C7.82349425,9.90559896 7.75350727,10.0716146 7.75350727,10.2734375 C7.75350727,10.4817708 7.82349425,10.6494141 7.96346821,10.7763672 C8.10344216,10.9033203 8.28410623,10.9667969 8.50546039,10.9667969 L17.5191323,10.9667969 Z M17.5191323,14.0234375 C17.733976,14.0234375 17.9113849,13.9599609 18.0513588,13.8330078 C18.1913328,13.7060547 18.2613198,13.5384115 18.2613198,13.3300781 C18.2613198,13.1217448 18.1913328,12.9541016 18.0513588,12.8271484 C17.9113849,12.7001953 17.733976,12.6367188 17.5191323,12.6367188 L8.50546039,12.6367188 C8.28410623,12.6367188 8.10344216,12.7001953 7.96346821,12.8271484 C7.82349425,12.9541016 7.75350727,13.1217448 7.75350727,13.3300781 C7.75350727,13.5384115 7.82349425,13.7060547 7.96346821,13.8330078 C8.10344216,13.9599609 8.28410623,14.0234375 8.50546039,14.0234375 L17.5191323,14.0234375 Z M17.5191323,17.0898438 C17.733976,17.0898438 17.9113849,17.0247396 18.0513588,16.8945312 C18.1913328,16.7643229 18.2613198,16.5950521 18.2613198,16.3867188 C18.2613198,16.1783854 18.1913328,16.0107422 18.0513588,15.8837891 C17.9113849,15.7568359 17.733976,15.6933594 17.5191323,15.6933594 L8.50546039,15.6933594 C8.28410623,15.6933594 8.10344216,15.7568359 7.96346821,15.8837891 C7.82349425,16.0107422 7.75350727,16.1783854 7.75350727,16.3867188 C7.75350727,16.5950521 7.82349425,16.7643229 7.96346821,16.8945312 C8.10344216,17.0247396 8.28410623,17.0898438 8.50546039,17.0898438 L17.5191323,17.0898438 Z" id="􀧱" fill="#53535E" fill-rule="nonzero"></path>
    </g>
</svg>