<?xml version="1.0" encoding="UTF-8"?>
<svg width="26px" height="26px" viewBox="0 0 26 26" version="1.1" xmlns="http://www.w3.org/2000/svg" xmlns:xlink="http://www.w3.org/1999/xlink">
    <title>setting icon/反馈问题</title>
    <g id="setting-icon/反馈问题" stroke="none" stroke-width="1" fill="none" fill-rule="evenodd">
        <path d="M12.9976479,22.8222656 C14.2997312,22.8222656 15.5236896,22.5732422 16.6695229,22.0751953 C17.8153562,21.5771484 18.8244708,20.8919271 19.6968666,20.0195312 C20.5692625,19.1471354 21.2528562,18.1396484 21.7476479,16.9970703 C22.2424396,15.8544922 22.4898354,14.6321615 22.4898354,13.3300781 C22.4898354,12.0279948 22.2424396,10.8056641 21.7476479,9.66308594 C21.2528562,8.52050781 20.5676349,7.51139323 19.6919838,6.63574219 C18.8163328,5.76009115 17.8055906,5.07486979 16.6597573,4.58007812 C15.5139239,4.08528646 14.2899656,3.83789062 12.9878823,3.83789062 C11.6988198,3.83789062 10.4813719,4.08528646 9.33553852,4.58007812 C8.18970519,5.07486979 7.178963,5.76009115 6.30331196,6.63574219 C5.42766091,7.51139323 4.74243956,8.52050781 4.24764789,9.66308594 C3.75285623,10.8056641 3.50546039,12.0279948 3.50546039,13.3300781 C3.50546039,14.6321615 3.75448383,15.8544922 4.25253071,16.9970703 C4.75057758,18.1396484 5.43579894,19.1471354 6.30819477,20.0195312 C7.1805906,20.8919271 8.18970519,21.5771484 9.33553852,22.0751953 C10.4813719,22.5732422 11.702075,22.8222656 12.9976479,22.8222656 Z M12.9976479,21.0742188 C11.9299396,21.0742188 10.9273354,20.8740234 9.98983539,20.4736328 C9.05233539,20.0732422 8.23039529,19.5198568 7.52401508,18.8134766 C6.81763487,18.1070964 6.26587706,17.2851562 5.86874164,16.3476562 C5.47160623,15.4101562 5.27303852,14.4042969 5.27303852,13.3300781 C5.27303852,12.2623698 5.47160623,11.2597656 5.86874164,10.3222656 C6.26587706,9.38476562 6.81763487,8.56119792 7.52401508,7.8515625 C8.23039529,7.14192708 9.05070779,6.58691406 9.98495258,6.18652344 C10.9191974,5.78613281 11.9201739,5.5859375 12.9878823,5.5859375 C14.0686114,5.5859375 15.0760984,5.78613281 16.0103432,6.18652344 C16.944588,6.58691406 17.7665281,7.14192708 18.4761635,7.8515625 C19.1857989,8.56119792 19.740812,9.38476562 20.1412026,10.3222656 C20.5415932,11.2597656 20.7417885,12.2623698 20.7417885,13.3300781 C20.7482989,14.4042969 20.5497312,15.4101562 20.1460854,16.3476562 C19.7424396,17.2851562 19.1890541,18.1070964 18.4859291,18.8134766 C17.7828041,19.5198568 16.9624916,20.0732422 16.0249916,20.4736328 C15.0874916,20.8740234 14.0783771,21.0742188 12.9976479,21.0742188 Z M13.0074135,19.1015625 C13.4761635,19.1015625 13.9107338,18.9518229 14.3111245,18.6523438 C14.7115151,18.3528646 15.0337807,17.9622396 15.2779213,17.4804688 C15.522062,16.9986979 15.6441323,16.4876302 15.6441323,15.9472656 C15.6441323,15.8365885 15.6376219,15.7340495 15.624601,15.6396484 C15.6115802,15.5452474 15.5887937,15.4589844 15.5562416,15.3808594 C15.6148354,15.4003906 15.6734291,15.4150391 15.7320229,15.4248047 C15.7906166,15.4345703 15.8492104,15.4492188 15.9078041,15.46875 C16.0705646,15.5143229 16.1763588,15.5745443 16.225187,15.6494141 C16.2740151,15.7242839 16.2886635,15.8333333 16.2691323,15.9765625 L15.9175698,18.3105469 C15.8915281,18.4602865 15.920825,18.5807292 16.0054604,18.671875 C16.0900958,18.7630208 16.1942625,18.8085938 16.3179604,18.8085938 C16.5653562,18.8085938 16.7118406,18.6621094 16.7574135,18.3691406 L17.1480385,15.8203125 C17.2001219,15.5208333 17.162687,15.2832031 17.0357338,15.1074219 C16.9087807,14.9316406 16.6792885,14.8014323 16.3472573,14.7167969 L14.1890541,14.21875 C14.2671791,14.1796875 14.3469317,14.1145833 14.428312,14.0234375 C14.5096922,13.9322917 14.5666583,13.8183594 14.5992104,13.6816406 L16.0445229,13.4863281 C16.3635333,13.4472656 16.5995359,13.3349609 16.7525307,13.1494141 C16.9055255,12.9638672 16.9820229,12.7148438 16.9820229,12.4023438 L16.9820229,10.703125 C16.9820229,10.4101562 16.8420489,10.2636719 16.562101,10.2636719 C16.2821531,10.2636719 16.1421791,10.4101562 16.1421791,10.703125 L16.1421791,12.2265625 C16.1421791,12.4023438 16.0982338,12.5244141 16.0103432,12.5927734 C15.9224526,12.6611328 15.7971271,12.7083333 15.6343666,12.734375 L14.5992104,12.8710938 C14.5601479,12.7083333 14.4787677,12.578125 14.3550698,12.4804688 C14.765226,12.4023438 15.0728432,12.2395833 15.2779213,11.9921875 C15.4829995,11.7447917 15.5855385,11.4290365 15.5855385,11.0449219 C15.5855385,10.4329427 15.3934812,9.89583333 15.0093666,9.43359375 L15.0386635,9.39453125 C15.5660073,9.01692708 15.6571531,8.52864583 15.312101,7.9296875 L15.0191323,7.4609375 C14.921476,7.28515625 14.7945229,7.19726562 14.6382729,7.19726562 C14.5210854,7.19726562 14.4266844,7.23307292 14.3550698,7.3046875 C14.2834552,7.37630208 14.2476479,7.46419271 14.2476479,7.56835938 C14.2476479,7.65950521 14.2704344,7.74739583 14.3160073,7.83203125 L14.5601479,8.21289062 C14.7294187,8.47330729 14.7326739,8.66536458 14.5699135,8.7890625 L14.452726,8.89648438 C13.9969969,8.60351562 13.515226,8.45703125 13.0074135,8.45703125 C12.4865802,8.45703125 11.9982989,8.60351562 11.5425698,8.89648438 L11.4253823,8.7890625 C11.3342364,8.72395833 11.2951739,8.63932292 11.3081948,8.53515625 C11.3212156,8.43098958 11.3635333,8.32356771 11.4351479,8.21289062 L11.6792885,7.83203125 C11.7248614,7.74739583 11.7476479,7.65950521 11.7476479,7.56835938 C11.7476479,7.46419271 11.7118406,7.37630208 11.640226,7.3046875 C11.5686114,7.23307292 11.4774656,7.19726562 11.3667885,7.19726562 C11.1910073,7.19726562 11.0607989,7.28515625 10.9761635,7.4609375 L10.6929604,7.9296875 C10.3609291,8.54166667 10.4488198,9.02994792 10.9566323,9.39453125 L10.9956948,9.43359375 C10.6050698,9.89583333 10.4097573,10.4329427 10.4097573,11.0449219 C10.4097573,11.4290365 10.5139239,11.7447917 10.7222573,11.9921875 C10.9305906,12.2395833 11.2398354,12.4023438 11.6499916,12.4804688 C11.5197833,12.578125 11.4351479,12.7083333 11.3960854,12.8710938 L10.3609291,12.734375 C10.2046791,12.7148438 10.0809812,12.6692708 9.98983539,12.5976562 C9.89868956,12.5260417 9.85311664,12.4023438 9.85311664,12.2265625 L9.85311664,10.703125 C9.85311664,10.4101562 9.71639789,10.2636719 9.44296039,10.2636719 C9.15650206,10.2636719 9.01327289,10.4101562 9.01327289,10.703125 L9.01327289,12.4023438 C9.01327289,12.7148438 9.08977029,12.9638672 9.24276508,13.1494141 C9.39575987,13.3349609 9.63501769,13.4472656 9.96053852,13.4863281 L11.3960854,13.6816406 C11.4286375,13.811849 11.4856036,13.9241536 11.5669838,14.0185547 C11.648364,14.1129557 11.7313719,14.1796875 11.8160073,14.21875 L9.65780414,14.7167969 C9.33228331,14.8014323 9.10441873,14.9316406 8.97421039,15.1074219 C8.84400206,15.2832031 8.80168435,15.5208333 8.84725727,15.8203125 L9.23788227,18.3691406 C9.28345519,18.6621094 9.42993956,18.8085938 9.67733539,18.8085938 C9.80754373,18.8085938 9.91171039,18.7630208 9.98983539,18.671875 C10.0679604,18.5807292 10.0972573,18.4602865 10.077726,18.3105469 L9.72616352,15.9765625 C9.70663227,15.8333333 9.72128071,15.7242839 9.77010883,15.6494141 C9.81893696,15.5745443 9.92473123,15.5143229 10.0874916,15.46875 C10.1525958,15.4492188 10.2128172,15.4345703 10.2681557,15.4248047 C10.3234942,15.4150391 10.3804604,15.4003906 10.4390541,15.3808594 C10.4130125,15.4589844 10.3918536,15.5452474 10.3755776,15.6396484 C10.3593015,15.7340495 10.3511635,15.8365885 10.3511635,15.9472656 C10.3511635,16.4876302 10.4732338,16.9986979 10.7173745,17.4804688 C10.9615151,17.9622396 11.2837807,18.3528646 11.6841713,18.6523438 C12.084562,18.9518229 12.5256427,19.1015625 13.0074135,19.1015625 Z" id="􀌜" fill="#53535E" fill-rule="nonzero"></path>
    </g>
</svg>