<?xml version="1.0" encoding="UTF-8"?>
<svg width="22px" height="16px" viewBox="0 0 22 16" version="1.1" xmlns="http://www.w3.org/2000/svg" xmlns:xlink="http://www.w3.org/1999/xlink">
    <title>􀍯</title>
    <g id="Page-1" stroke="none" stroke-width="1" fill="none" fill-rule="evenodd">
        <g id="icon/mall-detail-page/ATM" transform="translate(-2.000000, -5.000000)" fill="#5E5E69" fill-rule="nonzero">
            <path d="M20.7871094,20.1689453 C21.7070312,20.1689453 22.3969727,19.9418945 22.8569336,19.487793 C23.3168945,19.0336914 23.546875,18.3554688 23.546875,17.453125 L23.546875,7.88183594 C23.546875,6.97949219 23.3168945,6.29980469 22.8569336,5.84277344 C22.3969727,5.38574219 21.7070312,5.15722656 20.7871094,5.15722656 L5.65234375,5.15722656 C4.73242188,5.15722656 4.04248047,5.38427734 3.58251953,5.83837891 C3.12255859,6.29248047 2.89257812,6.97363281 2.89257812,7.88183594 L2.89257812,17.453125 C2.89257812,18.3554688 3.12255859,19.0336914 3.58251953,19.487793 C4.04248047,19.9418945 4.73242188,20.1689453 5.65234375,20.1689453 L20.7871094,20.1689453 Z M22.131,8.656 L4.307,8.656 L4.30761719,7.9609375 C4.30761719,7.50390625 4.42480469,7.15820312 4.65917969,6.92382812 C4.89355469,6.68945312 5.23046875,6.57226562 5.66992188,6.57226562 L20.7695312,6.57226562 C21.203125,6.57226562 21.5385742,6.68945312 21.7758789,6.92382812 C22.0131836,7.15820312 22.1318359,7.50390625 22.1318359,7.9609375 L22.131,8.656 Z M20.7695312,18.7539062 L5.66992188,18.7539062 C5.23046875,18.7539062 4.89355469,18.6381836 4.65917969,18.4067383 C4.42480469,18.175293 4.30761719,17.8310547 4.30761719,17.3740234 L4.307,10.651 L22.131,10.651 L22.1318359,17.3740234 C22.1318359,17.8310547 22.0131836,18.175293 21.7758789,18.4067383 C21.5385742,18.6381836 21.203125,18.7539062 20.7695312,18.7539062 Z M8.9921875,17.0927734 C9.25,17.0927734 9.45800781,17.0136719 9.61621094,16.8554688 C9.77441406,16.6972656 9.85351562,16.4951172 9.85351562,16.2490234 L9.85351562,14.6230469 C9.85351562,14.3710938 9.77441406,14.1674805 9.61621094,14.012207 C9.45800781,13.8569336 9.25,13.7792969 8.9921875,13.7792969 L6.83886719,13.7792969 C6.58105469,13.7792969 6.37304688,13.8569336 6.21484375,14.012207 C6.05664062,14.1674805 5.97753906,14.3710938 5.97753906,14.6230469 L5.97753906,16.2490234 C5.97753906,16.4951172 6.05664062,16.6972656 6.21484375,16.8554688 C6.37304688,17.0136719 6.58105469,17.0927734 6.83886719,17.0927734 L8.9921875,17.0927734 Z" id="􀍯"></path>
        </g>
    </g>
</svg>
