<?xml version="1.0" encoding="UTF-8"?>
<svg width="13px" height="14px" viewBox="0 0 13 14" version="1.1" xmlns="http://www.w3.org/2000/svg" xmlns:xlink="http://www.w3.org/1999/xlink">
    <title>􀮃</title>
    <g id="Page-1" stroke="none" stroke-width="1" fill="none" fill-rule="evenodd">
        <g id="mini-icon/merchant-card􀮃" transform="translate(-3.000000, -2.000000)" fill="#ABABB8" fill-rule="nonzero">
            <path d="M15.190918,7.19824219 C15.5828451,7.19824219 15.7788086,7 15.7788086,6.60351562 L15.7788086,5.02441406 C15.7788086,4.3453776 15.6044922,3.83268229 15.2558594,3.48632812 C14.9072266,3.13997396 14.386556,2.96679688 13.6938477,2.96679688 L12.121582,2.96679688 C11.7250977,2.96679688 11.5268555,3.16276042 11.5268555,3.5546875 C11.5268555,3.94661458 11.7250977,4.14257812 12.121582,4.14257812 L13.6459961,4.14257812 C13.9513346,4.14257812 14.1871745,4.22347005 14.3535156,4.38525391 C14.5198568,4.54703776 14.6030273,4.78971354 14.6030273,5.11328125 L14.6030273,6.60351562 C14.6030273,7 14.7989909,7.19824219 15.190918,7.19824219 Z M3.61767578,7.19824219 C4.00960286,7.19824219 4.20556641,7 4.20556641,6.60351562 L4.20556641,5.11328125 C4.20556641,4.78971354 4.28873698,4.54703776 4.45507812,4.38525391 C4.62141927,4.22347005 4.85725911,4.14257812 5.16259766,4.14257812 L6.68701172,4.14257812 C7.08805339,4.14257812 7.28857422,3.94661458 7.28857422,3.5546875 C7.28857422,3.16276042 7.08805339,2.96679688 6.68701172,2.96679688 L5.11474609,2.96679688 C4.42659505,2.96679688 3.9070638,3.13997396 3.55615234,3.48632812 C3.20524089,3.83268229 3.02978516,4.3453776 3.02978516,5.02441406 L3.02978516,6.60351562 C3.02978516,7 3.2257487,7.19824219 3.61767578,7.19824219 Z M9.35986328,13.5283203 C9.64697266,13.5283203 9.8680013,13.3528646 10.0229492,13.0019531 L12.8393555,6.91796875 C12.9213867,6.74023438 12.9624023,6.5875651 12.9624023,6.45996094 C12.9624023,6.29589844 12.9054362,6.15690104 12.7915039,6.04296875 C12.6775716,5.92903646 12.5362956,5.87207031 12.3676758,5.87207031 C12.2400716,5.87207031 12.0874023,5.91308594 11.909668,5.99511719 L5.77783203,8.82519531 C5.61832682,8.89811198 5.49869792,8.99039714 5.41894531,9.10205078 C5.33919271,9.21370443 5.29931641,9.33561198 5.29931641,9.46777344 C5.29931641,9.66373698 5.35628255,9.81526693 5.47021484,9.92236328 C5.58414714,10.0294596 5.74820964,10.0830078 5.96240234,10.0830078 L8.74462891,10.0898438 L8.75146484,12.8105469 C8.75146484,13.0429688 8.80273438,13.2207031 8.90527344,13.34375 C9.0078125,13.4667969 9.15934245,13.5283203 9.35986328,13.5283203 Z M9.62646484,11.8193359 L9.64013672,9.61816406 C9.64013672,9.4905599 9.60139974,9.38688151 9.52392578,9.30712891 C9.44645182,9.2273763 9.34163411,9.1875 9.20947266,9.1875 L7.02880859,9.20117188 L11.8413086,6.98632812 L9.62646484,11.8193359 Z M6.68701172,15.7089844 C7.08805339,15.7089844 7.28857422,15.5152995 7.28857422,15.1279297 C7.28857422,14.7360026 7.08805339,14.5400391 6.68701172,14.5400391 L5.16259766,14.5400391 C4.85725911,14.5400391 4.62141927,14.4591471 4.45507812,14.2973633 C4.28873698,14.1355794 4.20556641,13.890625 4.20556641,13.5625 L4.20556641,12.0791016 C4.20556641,11.6826172 4.00960286,11.484375 3.61767578,11.484375 C3.2257487,11.484375 3.02978516,11.6826172 3.02978516,12.0791016 L3.02978516,13.6513672 C3.02978516,14.3349609 3.20524089,14.8487956 3.55615234,15.1928711 C3.9070638,15.5369466 4.42659505,15.7089844 5.11474609,15.7089844 L6.68701172,15.7089844 Z M13.6938477,15.7089844 C14.386556,15.7089844 14.9072266,15.5358073 15.2558594,15.1894531 C15.6044922,14.843099 15.7788086,14.3304036 15.7788086,13.6513672 L15.7788086,12.0791016 C15.7788086,11.6826172 15.5828451,11.484375 15.190918,11.484375 C14.7989909,11.484375 14.6030273,11.6826172 14.6030273,12.0791016 L14.6030273,13.5625 C14.6030273,13.890625 14.5198568,14.1355794 14.3535156,14.2973633 C14.1871745,14.4591471 13.9513346,14.5400391 13.6459961,14.5400391 L12.121582,14.5400391 C11.7250977,14.5400391 11.5268555,14.7360026 11.5268555,15.1279297 C11.5268555,15.5152995 11.7250977,15.7089844 12.121582,15.7089844 L13.6938477,15.7089844 Z" id="􀮃"></path>
        </g>
    </g>
</svg>
