<?xml version="1.0" encoding="UTF-8"?>
<svg width="375px" height="191px" viewBox="0 0 375 191" version="1.1" xmlns="http://www.w3.org/2000/svg" xmlns:xlink="http://www.w3.org/1999/xlink">
    <title>Atomosphere BG</title>
    <defs>
        <linearGradient x1="18.9077326%" y1="5.23493504%" x2="100%" y2="5.23493504%" id="linearGradient-1">
            <stop stop-color="#2E58FF" offset="0%"></stop>
            <stop stop-color="#4A3ED1" offset="100%"></stop>
        </linearGradient>
        <path d="M375.002369,0 L375.003783,173.640389 C317.933791,184.785455 254.426044,191 187.502369,191 C120.57832,191 57.0702385,184.785386 -5.04485342e-13,173.640203 L0.00236887822,0 L375.002369,0 Z" id="path-2"></path>
    </defs>
    <g id="UX" stroke="none" stroke-width="1" fill="none" fill-rule="evenodd">
        <g id="商户主页" transform="translate(0.000000, -88.000000)">
            <g id="Atomosphere-BG" transform="translate(0.000000, 88.000000)">
                <mask id="mask-3" fill="white">
                    <use xlink:href="#path-2"></use>
                </mask>
                <use id="Mask" fill="url(#linearGradient-1)" xlink:href="#path-2"></use>
            </g>
        </g>
    </g>
</svg>
