<?xml version="1.0" encoding="UTF-8"?>
<svg width="28px" height="8px" viewBox="0 0 28 8" version="1.1" xmlns="http://www.w3.org/2000/svg" xmlns:xlink="http://www.w3.org/1999/xlink">
    <title>􀆑</title>
    <g id="Mall-List" stroke="none" stroke-width="1" fill="none" fill-rule="evenodd">
        <g id="MALL" transform="translate(-172.000000, -776.000000)" fill="#ABABB8" fill-rule="nonzero">
            <path d="M186.044697,783.455148 C186.30251,783.455148 186.587178,783.401437 186.898701,783.294015 C187.210225,783.186593 187.505635,783.079171 187.784932,782.971749 L199.225361,778.443917 C199.461689,778.347238 199.646992,778.204904 199.78127,778.016915 C199.915547,777.828927 199.982686,777.627511 199.982686,777.412667 C199.982686,777.068917 199.867207,776.778878 199.63625,776.54255 C199.405293,776.306222 199.117939,776.188058 198.774189,776.188058 C198.602314,776.188058 198.408955,776.225656 198.194111,776.300851 C197.979268,776.376046 197.791279,776.440499 197.630146,776.49421 L186.035263,781.117714 L174.427021,776.49421 C174.276631,776.440499 174.096699,776.376046 173.887227,776.300851 C173.677754,776.225656 173.481709,776.188058 173.299092,776.188058 C172.955342,776.188058 172.667988,776.306222 172.437031,776.54255 C172.206074,776.778878 172.090596,777.068917 172.090596,777.412667 C172.090596,777.627511 172.157734,777.828927 172.292012,778.016915 C172.426289,778.204904 172.611592,778.347238 172.84792,778.443917 L184.28835,782.971749 C184.567646,783.079171 184.860371,783.186593 185.166523,783.294015 C185.472676,783.401437 185.7654,783.455148 186.044697,783.455148 Z" id="􀆑"></path>
        </g>
    </g>
</svg>