<?xml version="1.0" encoding="UTF-8"?>
<svg width="36px" height="36px" viewBox="0 0 36 36" version="1.1" xmlns="http://www.w3.org/2000/svg" xmlns:xlink="http://www.w3.org/1999/xlink">
    <title>icon/bar/􀬜</title>
    <defs>
        <linearGradient x1="50%" y1="0%" x2="50%" y2="100%" id="linearGradient-1">
            <stop stop-color="#EEEEEE" offset="0%"></stop>
            <stop stop-color="#D8D8D8" offset="100%"></stop>
        </linearGradient>
        <linearGradient x1="25.5859375%" y1="23.3371311%" x2="72.7132161%" y2="81.2744141%" id="linearGradient-2">
            <stop stop-color="#8BA8FB" offset="0%"></stop>
            <stop stop-color="#6B8EF7" offset="100%"></stop>
        </linearGradient>
        <path d="M18.2050781,32.0429688 C20.1289062,32.0429688 21.9355469,31.6767578 23.625,30.9443359 C25.3144531,30.2119141 26.8061523,29.2011719 28.1000977,27.9121094 C29.394043,26.6230469 30.4072266,25.1313477 31.1396484,23.4370117 C31.8720703,21.7426758 32.2382812,19.9335938 32.2382812,18.0097656 C32.2382812,16.0957031 31.8696289,14.2915039 31.1323242,12.597168 C30.3950195,10.902832 29.3793945,9.40869141 28.0854492,8.11474609 C26.7915039,6.82080078 25.2998047,5.80761719 23.6103516,5.07519531 C21.9208984,4.34277344 20.1142578,3.9765625 18.1904297,3.9765625 C16.2763672,3.9765625 14.4746094,4.34277344 12.7851562,5.07519531 C11.0957031,5.80761719 9.60400391,6.82080078 8.31005859,8.11474609 C7.01611328,9.40869141 6.00292969,10.902832 5.27050781,12.597168 C4.53808594,14.2915039 4.171875,16.0957031 4.171875,18.0097656 C4.171875,19.9335938 4.54052734,21.7426758 5.27783203,23.4370117 C6.01513672,25.1313477 7.02832031,26.6230469 8.31738281,27.9121094 C9.60644531,29.2011719 11.0957031,30.2119141 12.7851562,30.9443359 C14.4746094,31.6767578 16.28125,32.0429688 18.2050781,32.0429688 Z M20.0141602,25.0336914 C19.1010742,24.706543 18.1904297,24.2231445 17.2822266,23.5834961 C16.3740234,22.9438477 15.5048828,22.2138672 14.6748047,21.3935547 C13.8447266,20.5537109 13.1123047,19.6796875 12.4775391,18.7714844 C11.8427734,17.8632813 11.3618164,16.9550781 11.034668,16.046875 C10.7075195,15.1386719 10.5878906,14.2744141 10.6757812,13.4541016 C10.7636719,12.6337891 11.1201172,11.9111328 11.7451172,11.2861328 L11.8330078,11.1982422 L11.8330078,11.1982422 C11.8623047,11.1689453 11.9013672,11.1445312 11.9501953,11.125 C12.2529297,10.9003906 12.5507812,10.7319336 12.84375,10.6196289 C13.1367188,10.5073242 13.4101562,10.4829102 13.6640625,10.5463867 C13.9179688,10.6098633 14.1474609,10.7832031 14.3525391,11.0664062 L16.125,13.5712891 C16.4082031,13.9716797 16.5302734,14.3232422 16.4912109,14.6259766 C16.4521484,14.9287109 16.2617188,15.2509766 15.9199219,15.5927734 L15.3632812,16.1933594 C15.2753906,16.3007812 15.2363281,16.4082031 15.2460938,16.515625 C15.2558594,16.6230469 15.2851562,16.7158203 15.3339844,16.7939453 C15.4707031,17.0380859 15.7001953,17.3579102 16.0224609,17.753418 C16.3447266,18.1489258 16.7060547,18.5517578 17.1064453,18.9619141 C17.5068359,19.3623047 17.9023438,19.71875 18.2929688,20.03125 C18.6835938,20.34375 19.0058594,20.578125 19.2597656,20.734375 C19.3574219,20.7929688 19.4697266,20.8198242 19.5966797,20.8149414 C19.7236328,20.8100586 19.8261719,20.7685547 19.9042969,20.6904297 L20.4609375,20.1337891 C20.7929688,19.8115234 21.112793,19.628418 21.4204102,19.5844727 C21.7280273,19.5405273 22.0820313,19.6552734 22.4824219,19.9287109 C22.9316406,20.2314453 23.3100586,20.4926758 23.6176758,20.7124023 C23.925293,20.9321289 24.1914063,21.1225586 24.4160156,21.2836914 C24.640625,21.4448242 24.8554688,21.5986328 25.0605469,21.7451172 C25.4511719,22.0576172 25.6245117,22.4262695 25.5805664,22.8510742 C25.5366211,23.2758789 25.34375,23.6787109 25.0019531,24.0595703 C24.9628906,24.0986328 24.9287109,24.1401367 24.8994141,24.184082 C24.8701172,24.2280273 24.8310547,24.2744141 24.7822266,24.3232422 C24.1474609,24.9482422 23.4223633,25.3046875 22.6069336,25.3925781 C21.7915039,25.4804688 20.9272461,25.3608398 20.0141602,25.0336914 Z" id="path-3"></path>
    </defs>
    <g id="icon/bar/􀬜" stroke="none" stroke-width="1" fill="none" fill-rule="evenodd">
        <g id="􀒦" fill-rule="nonzero">
            <use fill="#53535E" xlink:href="#path-3"></use>
            <use fill="url(#linearGradient-1)" xlink:href="#path-3"></use>
            <use fill="url(#linearGradient-2)" xlink:href="#path-3"></use>
        </g>
    </g>
</svg>