<?xml version="1.0" encoding="UTF-8"?>
<svg width="36px" height="36px" viewBox="0 0 36 36" version="1.1" xmlns="http://www.w3.org/2000/svg" xmlns:xlink="http://www.w3.org/1999/xlink">
    <title>icon/bar/􀬛</title>
    <g id="icon/bar/􀬛" stroke="none" stroke-width="1" fill="none" fill-rule="evenodd">
        <path d="M18.2050781,32.0283203 C20.1289062,32.0283203 21.9355469,31.6621094 23.625,30.9296875 C25.3144531,30.1972656 26.8061523,29.1865234 28.1000977,27.8974609 C29.394043,26.6083984 30.4072266,25.1166992 31.1396484,23.4223633 C31.8720703,21.7280273 32.2382812,19.9189453 32.2382812,17.9951172 C32.2382812,16.0810547 31.8696289,14.2768555 31.1323242,12.5825195 C30.3950195,10.8881836 29.3793945,9.39404297 28.0854492,8.10009766 C26.7915039,6.80615234 25.2998047,5.79296875 23.6103516,5.06054688 C21.9208984,4.328125 20.1142578,3.96191406 18.1904297,3.96191406 C16.2763672,3.96191406 14.4746094,4.328125 12.7851562,5.06054688 C11.0957031,5.79296875 9.60400391,6.80615234 8.31005859,8.10009766 C7.01611328,9.39404297 6.00292969,10.8881836 5.27050781,12.5825195 C4.53808594,14.2768555 4.171875,16.0810547 4.171875,17.9951172 C4.171875,19.9189453 4.54052734,21.7280273 5.27783203,23.4223633 C6.01513672,25.1166992 7.02832031,26.6083984 8.31738281,27.8974609 C9.60644531,29.1865234 11.0957031,30.1972656 12.7851562,30.9296875 C14.4746094,31.6621094 16.28125,32.0283203 18.2050781,32.0283203 Z M18.2050781,29.9042969 C16.5546875,29.9042969 15.0092773,29.5966797 13.5688477,28.9814453 C12.128418,28.3662109 10.8662109,27.5141602 9.78222656,26.425293 C8.69824219,25.3364258 7.85107422,24.0717773 7.24072266,22.6313477 C6.63037109,21.190918 6.32519531,19.6455078 6.32519531,17.9951172 C6.32519531,16.3544922 6.63037109,14.8139648 7.24072266,13.3735352 C7.85107422,11.9331055 8.69824219,10.668457 9.78222656,9.57958984 C10.8662109,8.49072266 12.1259766,7.63867188 13.5615234,7.0234375 C14.9970703,6.40820312 16.5400391,6.10058594 18.1904297,6.10058594 C19.8505859,6.10058594 21.3984375,6.40820312 22.8339844,7.0234375 C24.2695313,7.63867188 25.5317383,8.49072266 26.6206055,9.57958984 C27.7094727,10.668457 28.5615234,11.9331055 29.1767578,13.3735352 C29.7919922,14.8139648 30.0998383,16.3544922 30.0998383,17.9951172 C30.109375,19.6455078 29.8066406,21.190918 29.1914063,22.6313477 C28.5761719,24.0717773 27.7241211,25.3364258 26.6352539,26.425293 C25.5463867,27.5141602 24.2817383,28.3662109 22.8413086,28.9814453 C21.4008789,29.5966797 19.8554688,29.9042969 18.2050781,29.9042969 Z M22.4824219,25.1875 C23.2734375,25.0996094 23.9765625,24.7480469 24.5917969,24.1328125 C24.640625,24.09375 24.6821289,24.0546875 24.7163086,24.015625 C24.7504883,23.9765625 24.7871094,23.9326172 24.8261719,23.8837891 C25.1582031,23.5126953 25.34375,23.1196289 25.3828125,22.7045898 C25.421875,22.2895508 25.2509766,21.9306641 24.8701172,21.6279297 C24.6748047,21.4912109 24.4697266,21.3447266 24.2548828,21.1884766 C24.0400391,21.0322266 23.78125,20.8491211 23.4785156,20.6391602 C23.1757813,20.4291992 22.8046875,20.1728516 22.3652344,19.8701172 C21.9648438,19.5966797 21.6181641,19.4819336 21.3251953,19.5258789 C21.0322266,19.5698242 20.7246094,19.7480469 20.4023438,20.0605469 L19.8457031,20.6025391 C19.7578125,20.6904297 19.6552734,20.734375 19.5380859,20.734375 C19.4208984,20.734375 19.3183594,20.7001953 19.2304688,20.6318359 C18.9863281,20.4951172 18.6738281,20.2753906 18.2929688,19.9726562 C17.9121094,19.6699219 17.5214844,19.3183594 17.1210938,18.9179688 C16.7304688,18.5273438 16.3813477,18.1367188 16.0737305,17.7460938 C15.7661133,17.3554688 15.5439453,17.0429688 15.4072266,16.8085938 C15.3583984,16.7304688 15.3266602,16.6376953 15.3120117,16.5302734 C15.2973633,16.4228516 15.3388672,16.3203125 15.4365234,16.2226562 L15.9931641,15.6513672 C16.3056641,15.3095703 16.4838867,14.9921875 16.527832,14.6992187 C16.5717773,14.40625 16.4521484,14.0693359 16.1689453,13.6884766 L14.4404297,11.2421875 C14.2451172,10.9589844 14.0229492,10.7880859 13.7739258,10.7294922 C13.5249023,10.6708984 13.2563477,10.6953125 12.9682617,10.8027344 C12.6801758,10.9101562 12.3896484,11.0712891 12.0966797,11.2861328 C12.0576172,11.3056641 12.0234375,11.3300781 11.9941406,11.359375 L11.90625,11.4472656 L11.90625,11.4472656 C11.3007812,12.0625 10.9541016,12.7680664 10.8662109,13.5639648 C10.7783203,14.3598633 10.8930664,15.199707 11.2104492,16.0834961 C11.527832,16.9672852 11.996582,17.8535156 12.6166992,18.7421875 C13.2368164,19.6308594 13.9521484,20.4804688 14.7626953,21.2910156 C15.5634766,22.0917969 16.4106445,22.8022461 17.3041992,23.4223633 C18.1977539,24.0424805 19.0864258,24.5136719 19.9702148,24.8359375 C20.8540039,25.1582031 21.6914063,25.2753906 22.4824219,25.1875 Z" id="􀒥" fill="#53535E" fill-rule="nonzero"></path>
    </g>
</svg>