<?xml version="1.0" encoding="UTF-8"?>
<svg width="26px" height="26px" viewBox="0 0 26 26" version="1.1" xmlns="http://www.w3.org/2000/svg" xmlns:xlink="http://www.w3.org/1999/xlink">
    <title>icon/mall detail page/入口</title>
    <g id="icon/mall-detail-page/入口" stroke="none" stroke-width="1" fill="none" fill-rule="evenodd">
        <path d="M13.0483398,6.51953125 C13.4057617,6.51953125 13.7353516,6.43017578 14.0371094,6.25146484 C14.3388672,6.07275391 14.5791016,5.83398438 14.7578125,5.53515625 C14.9365234,5.23632812 15.0258789,4.9140625 15.0258789,4.56835938 C15.0258789,4.19921875 14.9365234,3.86376953 14.7578125,3.56201172 C14.5791016,3.26025391 14.3388672,3.02001953 14.0371094,2.84130859 C13.7353516,2.66259766 13.4057617,2.57324219 13.0483398,2.57324219 C12.6850586,2.57324219 12.3554688,2.66259766 12.0595703,2.84130859 C11.7636719,3.02001953 11.527832,3.26025391 11.3520508,3.56201172 C11.1762695,3.86376953 11.0883789,4.19921875 11.0883789,4.56835938 C11.0883789,4.9140625 11.1762695,5.23632812 11.3520508,5.53515625 C11.527832,5.83398438 11.7636719,6.07275391 12.0595703,6.25146484 C12.3554688,6.43017578 12.6850586,6.51953125 13.0483398,6.51953125 Z M15.8608398,22.1728516 C16.0834961,22.1728516 16.2841797,22.09375 16.4628906,21.9355469 C16.6416016,21.7773438 16.730957,21.5517578 16.730957,21.2587891 C16.730957,21.0654297 16.6723633,20.8486328 16.5551758,20.6083984 L14.8061523,17.0751953 C14.7241211,16.9169922 14.640625,16.7661133 14.5556641,16.6225586 C14.4707031,16.4790039 14.3842773,16.3515625 14.2963867,16.2402344 L13.215332,14.6845703 L13.2768555,14.4736328 C13.4291992,14.0048828 13.5405273,13.5976562 13.6108398,13.2519531 C13.6811523,12.90625 13.730957,12.5048828 13.7602539,12.0478516 L13.9448242,9.49023438 C13.9741211,9.08007812 13.9169922,8.70361328 13.7734375,8.36083984 C13.6298828,8.01806641 13.4101562,7.74560547 13.1142578,7.54345703 C12.8183594,7.34130859 12.4536133,7.24023438 12.0200195,7.24023438 C11.5454102,7.24023438 11.1206055,7.36328125 10.7456055,7.609375 C10.3706055,7.85546875 9.96337891,8.1953125 9.52392578,8.62890625 L8.17041016,9.96484375 C7.93603516,10.1933594 7.7734375,10.4130859 7.68261719,10.6240234 C7.59179688,10.8349609 7.53759766,11.0810547 7.52001953,11.3623047 L7.35302734,13.4628906 C7.32958984,13.7441406 7.38964844,13.9711914 7.53320312,14.144043 C7.67675781,14.3168945 7.87451172,14.4121094 8.12646484,14.4296875 C8.36669922,14.4472656 8.56884766,14.3842773 8.73291016,14.2407227 C8.89697266,14.097168 8.99072266,13.8730469 9.01416016,13.5683594 L9.21630859,11.2568359 L10.0073242,10.5625 C10.0834961,10.4921875 10.1640625,10.4731445 10.2490234,10.5053711 C10.3339844,10.5375977 10.3706055,10.609375 10.3588867,10.7207031 L10.2006836,12.7861328 C10.1655273,13.2841797 10.2373047,13.7207031 10.4160156,14.0957031 C10.5947266,14.4707031 10.8071289,14.8134766 11.0532227,15.1240234 L12.8198242,17.3300781 C12.9077148,17.4414062 12.9648438,17.5263672 12.9912109,17.5849609 C13.0175781,17.6435547 13.0512695,17.7138672 13.0922852,17.7958984 L14.9731445,21.5927734 C15.0844727,21.8095703 15.2163086,21.9604492 15.3686523,22.0454102 C15.5209961,22.1303711 15.6850586,22.1728516 15.8608398,22.1728516 Z M18.1899414,12.4521484 C18.4711914,12.4521484 18.6953125,12.3774414 18.8623047,12.2280273 C19.0292969,12.0786133 19.112793,11.8779297 19.112793,11.6259766 C19.112793,11.3681641 19.0292969,11.1630859 18.8623047,11.0107422 C18.6953125,10.8583984 18.4682617,10.7822266 18.1811523,10.7822266 L16.1157227,10.7822266 L14.6743164,9.21777344 L14.5161133,11.4589844 L15.1401367,12.0654297 C15.2866211,12.2177734 15.4404297,12.3203125 15.6015625,12.3730469 C15.7626953,12.4257812 15.9692383,12.4521484 16.2211914,12.4521484 L18.1899414,12.4521484 Z M7.88916016,22.1728516 C8.18212891,22.1728516 8.42236328,22.0615234 8.60986328,21.8388672 L11.246582,18.6923828 C11.3754883,18.5341797 11.4619141,18.4140625 11.5058594,18.3320312 C11.5498047,18.25 11.6010742,18.1298828 11.659668,17.9716797 C11.7006836,17.8603516 11.7358398,17.7504883 11.7651367,17.6420898 C11.7944336,17.5336914 11.8237305,17.4238281 11.8530273,17.3125 L10.3500977,15.4580078 L9.90185547,17.5410156 L7.41455078,20.4853516 C7.29736328,20.6201172 7.20214844,20.7504883 7.12890625,20.8764648 C7.05566406,21.0024414 7.01904297,21.1503906 7.01904297,21.3203125 C7.01904297,21.5722656 7.10253906,21.7773438 7.26953125,21.9355469 C7.43652344,22.09375 7.64306641,22.1728516 7.88916016,22.1728516 Z" id="􀝢" fill="#5E5E69" fill-rule="nonzero"></path>
    </g>
</svg>