<?xml version="1.0" encoding="UTF-8"?>
<svg width="27px" height="27px" viewBox="0 0 27 27" version="1.1" xmlns="http://www.w3.org/2000/svg" xmlns:xlink="http://www.w3.org/1999/xlink">
    <title>􀜅</title>
    <defs>
        <linearGradient x1="25.5859375%" y1="23.3371311%" x2="72.7132161%" y2="81.2744141%" id="linearGradient-1">
            <stop stop-color="#8BA8FB" offset="0%"></stop>
            <stop stop-color="#6B8EF7" offset="100%"></stop>
        </linearGradient>
        <path d="M17.5,30.9287109 C24.8564453,30.9287109 30.9472656,24.824707 30.9472656,17.4814453 C30.9472656,10.125 24.8432617,4.03417969 17.4868164,4.03417969 C10.1435547,4.03417969 4.05273438,10.125 4.05273438,17.4814453 C4.05273438,24.824707 10.1567383,30.9287109 17.5,30.9287109 Z M17.5,28.6875 C11.2773438,28.6875 6.30712891,23.7041016 6.30712891,17.4814453 C6.30712891,11.2587891 11.2641602,6.27539062 17.4868164,6.27539062 C23.7094727,6.27539062 28.6928711,11.2587891 28.7060807,17.4814453 C28.7192383,23.7041016 23.7226562,28.6875 17.5,28.6875 Z M25.4892578,15.0952148 C25.4892578,12.300293 22.0615234,10.8896484 17.4868164,10.8896484 C12.925293,10.8896484 9.49755859,12.300293 9.49755859,15.0820312 L9.49755859,15.0952148 C9.49755859,16.097168 10.0249023,16.3344727 10.9741211,16.2290039 L13.4262695,15.9785156 C14.3359375,15.8862305 14.5336914,15.4116211 14.5336914,14.6865234 L14.5336914,14.5019531 C14.5336914,13.9482422 15.4433594,13.6713867 17.4868164,13.6713867 C19.7280273,13.6713867 20.4663086,13.8955078 20.4663086,14.5151367 L20.4663086,14.6865234 C20.4663086,15.4116211 20.6508789,15.8862305 21.5605469,15.9785156 L24.0390625,16.2290039 C24.9750977,16.3344727 25.4892578,16.097168 25.4892578,15.0952148 Z M12.6748047,20.0786133 C13.1494141,20.0786133 13.4262695,19.828125 13.4262695,19.3271484 L13.4262695,18.074707 C13.4262695,17.6132812 13.1494141,17.3232422 12.6748047,17.3232422 L11.4619141,17.3232422 C10.9609375,17.3232422 10.6708984,17.6132812 10.6708984,18.074707 L10.6708984,19.3271484 C10.6708984,19.828125 10.9609375,20.0786133 11.4619141,20.0786133 L12.6748047,20.0786133 Z M16.300293,20.0786133 C16.7749023,20.0786133 17.0649414,19.828125 17.0649414,19.3271484 L17.0649414,18.074707 C17.0649414,17.6132812 16.7749023,17.3232422 16.300293,17.3232422 L15.0610352,17.3232422 C14.5600586,17.3232422 14.3095703,17.6132812 14.3095703,18.074707 L14.3095703,19.3271484 C14.3095703,19.828125 14.5600586,20.0786133 15.0610352,20.0786133 L16.300293,20.0786133 Z M19.8862305,20.0786133 C20.387207,20.0786133 20.6640625,19.828125 20.6640625,19.3271484 L20.6640625,18.074707 C20.6640625,17.6132812 20.387207,17.3232422 19.8862305,17.3232422 L18.6733398,17.3232422 C18.1987305,17.3232422 17.9086914,17.6132812 17.9086914,18.074707 L17.9086914,19.3271484 C17.9086914,19.828125 18.1987305,20.0786133 18.6733398,20.0786133 L19.8862305,20.0786133 Z M23.5117188,20.0786133 C23.9863281,20.0786133 24.2763672,19.828125 24.2763672,19.3271484 L24.2763672,18.074707 C24.2763672,17.6132812 23.9863281,17.3232422 23.5117188,17.3232422 L22.2856445,17.3232422 C21.784668,17.3232422 21.5209961,17.6132812 21.5209961,18.074707 L21.5209961,19.3271484 C21.5209961,19.828125 21.784668,20.0786133 22.2856445,20.0786133 L23.5117188,20.0786133 Z M12.6616211,23.690918 C13.1494141,23.690918 13.4262695,23.4272461 13.4262695,22.9394531 L13.4262695,21.7001953 C13.4262695,21.2255859 13.1494141,20.9355469 12.6616211,20.9355469 L11.4355469,20.9355469 C10.9609375,20.9355469 10.6708984,21.2255859 10.6708984,21.7001953 L10.6708984,22.9394531 C10.6708984,23.4272461 10.9609375,23.690918 11.4355469,23.690918 L12.6616211,23.690918 Z M19.9257812,23.690918 C20.4003906,23.690918 20.6640625,23.4272461 20.6640625,22.9394531 L20.6640625,21.7001953 C20.6640625,21.2255859 20.4003906,20.9355469 19.9257812,20.9355469 L15.0478516,20.9355469 C14.5600586,20.9355469 14.3095703,21.2255859 14.3095703,21.7001953 L14.3095703,22.9394531 C14.3095703,23.4272461 14.5600586,23.690918 15.0478516,23.690918 L19.9257812,23.690918 Z M23.5249023,23.690918 C24.0126953,23.690918 24.2763672,23.4272461 24.2763672,22.9394531 L24.2763672,21.7001953 C24.2763672,21.2255859 24.0126953,20.9355469 23.5249023,20.9355469 L22.2988281,20.9355469 C21.8110352,20.9355469 21.5209961,21.2255859 21.5209961,21.7001953 L21.5209961,22.9394531 C21.5209961,23.4272461 21.8110352,23.690918 22.2988281,23.690918 L23.5249023,23.690918 Z" id="path-2"></path>
    </defs>
    <g id="Page-1" stroke="none" stroke-width="1" fill="none" fill-rule="evenodd">
        <g id="icon/mall-card-xl/-􀜅-B" transform="translate(-4.000000, -4.000000)" fill-rule="nonzero">
            <g id="􀜅">
                <use fill="#4B54C7" xlink:href="#path-2"></use>
                <use fill="#D8D8D8" xlink:href="#path-2"></use>
                <use fill="url(#linearGradient-1)" xlink:href="#path-2"></use>
            </g>
        </g>
    </g>
</svg>
