<?xml version="1.0" encoding="UTF-8"?>
<svg width="12px" height="12px" viewBox="0 0 12 12" version="1.1" xmlns="http://www.w3.org/2000/svg" xmlns:xlink="http://www.w3.org/1999/xlink">
    <title>􀮃</title>
    <g id="icons(outlines)" stroke="none" stroke-width="1" fill="none" fill-rule="evenodd">
        <g id="mini-icon/event-card􀮃" transform="translate(-1.000000, -1.000000)" fill="#737384" fill-rule="nonzero">
            <path d="M11.8232422,5.29052734 C12.1079102,5.29052734 12.2583008,5.12939453 12.2583008,4.85009766 L12.2583008,3.53417969 C12.2583008,2.42773438 11.6943359,1.87451172 10.5717773,1.87451172 L9.25585938,1.87451172 C8.9765625,1.87451172 8.82080078,2.02490234 8.82080078,2.30419922 C8.82080078,2.58349609 8.9765625,2.73925781 9.25585938,2.73925781 L10.5556641,2.73925781 C11.0874023,2.73925781 11.3935547,3.02392578 11.3935547,3.58251953 L11.3935547,4.85009766 C11.3935547,5.12939453 11.5493164,5.29052734 11.8232422,5.29052734 Z M2.17138672,5.29052734 C2.45605469,5.29052734 2.60644531,5.12939453 2.60644531,4.85009766 L2.60644531,3.58251953 C2.60644531,3.02392578 2.90185547,2.73925781 3.43896484,2.73925781 L4.73876953,2.73925781 C5.0234375,2.73925781 5.17919922,2.58349609 5.17919922,2.30419922 C5.17919922,2.02490234 5.0234375,1.87451172 4.73876953,1.87451172 L3.42822266,1.87451172 C2.30566406,1.87451172 1.74169922,2.42773438 1.74169922,3.53417969 L1.74169922,4.85009766 C1.74169922,5.12939453 1.89746094,5.29052734 2.17138672,5.29052734 Z M6.95703125,10.6293945 C7.17724609,10.6293945 7.35986328,10.484375 7.48876953,10.199707 L9.87890625,5.05957031 C9.93798828,4.92529297 9.97558594,4.80175781 9.97558594,4.69433594 C9.97558594,4.42578125 9.77148438,4.22167969 9.49755859,4.22167969 C9.39013672,4.22167969 9.26660156,4.25927734 9.13769531,4.31835938 L3.95458984,6.71386719 C3.69677734,6.83203125 3.5625,7.01464844 3.5625,7.23486328 C3.5625,7.55175781 3.75048828,7.72363281 4.09423828,7.72363281 L6.46289062,7.72900391 L6.46826172,10.0439453 C6.46826172,10.425293 6.64013672,10.6293945 6.95703125,10.6293945 Z M7.16113281,9.31884766 L7.171875,7.34765625 C7.171875,7.15966797 7.03759766,7.02001953 6.83886719,7.02001953 L4.88916016,7.03076172 L9.10546875,5.09179688 L7.16113281,9.31884766 Z M4.73876953,12.3857422 C5.0234375,12.3857422 5.17919922,12.2299805 5.17919922,11.9560547 C5.17919922,11.6767578 5.0234375,11.5209961 4.73876953,11.5209961 L3.43896484,11.5209961 C2.90185547,11.5209961 2.60644531,11.2363281 2.60644531,10.6777344 L2.60644531,9.41015625 C2.60644531,9.12548828 2.45068359,8.96972656 2.17138672,8.96972656 C1.89208984,8.96972656 1.74169922,9.12548828 1.74169922,9.41015625 L1.74169922,10.7207031 C1.74169922,11.8325195 2.30566406,12.3857422 3.42822266,12.3857422 L4.73876953,12.3857422 Z M10.5717773,12.3857422 C11.6943359,12.3857422 12.2583008,11.8271484 12.2583008,10.7207031 L12.2583008,9.41015625 C12.2583008,9.12548828 12.1025391,8.96972656 11.8232422,8.96972656 C11.5439453,8.96972656 11.3935547,9.12548828 11.3935547,9.41015625 L11.3935547,10.6777344 C11.3935547,11.2363281 11.0874023,11.5209961 10.5556641,11.5209961 L9.25585938,11.5209961 C8.9765625,11.5209961 8.82080078,11.6767578 8.82080078,11.9560547 C8.82080078,12.2299805 8.9765625,12.3857422 9.25585938,12.3857422 L10.5717773,12.3857422 Z" id="􀮃"></path>
        </g>
    </g>
</svg>
