<?xml version="1.0" encoding="UTF-8"?>
<svg width="16px" height="16px" viewBox="0 0 16 16" version="1.1" xmlns="http://www.w3.org/2000/svg" xmlns:xlink="http://www.w3.org/1999/xlink">
    <title>􀐫</title>
    <g id="icons(outlines)" stroke="none" stroke-width="1" fill="none" fill-rule="evenodd">
        <g id="mini-icon/event-title-card􀐫G" transform="translate(-2.000000, -2.000000)" fill="#737384" fill-rule="nonzero">
            <path d="M9.6171875,17.1826172 C10.6376953,17.1826172 11.5983887,16.9873047 12.4992676,16.5966797 C13.4001465,16.2060547 14.1948242,15.6665039 14.8833008,14.9780273 C15.5717773,14.2895508 16.1113281,13.494873 16.5019531,12.5939941 C16.8925781,11.6931152 17.0878906,10.7324219 17.0878906,9.71191406 C17.0878906,8.69140625 16.8925781,7.73071289 16.5019531,6.82983398 C16.1113281,5.92895508 15.5717773,5.13427734 14.8833008,4.44580078 C14.1948242,3.75732422 13.3989258,3.21777344 12.4956055,2.82714844 C11.5922852,2.43652344 10.6303711,2.24121094 9.60986328,2.24121094 C8.58935547,2.24121094 7.62866211,2.43652344 6.7277832,2.82714844 C5.8269043,3.21777344 5.03344727,3.75732422 4.34741211,4.44580078 C3.66137695,5.13427734 3.12304688,5.92895508 2.73242188,6.82983398 C2.34179688,7.73071289 2.14648438,8.69140625 2.14648438,9.71191406 C2.14648438,10.7324219 2.34179688,11.6931152 2.73242188,12.5939941 C3.12304688,13.494873 3.66259766,14.2895508 4.35107422,14.9780273 C5.03955078,15.6665039 5.83422852,16.2060547 6.73510742,16.5966797 C7.63598633,16.9873047 8.59667969,17.1826172 9.6171875,17.1826172 Z M9.6171875,15.9375 C8.75292969,15.9375 7.94482422,15.7763672 7.19287109,15.4541016 C6.44091797,15.1318359 5.78051758,14.6862793 5.21166992,14.1174316 C4.64282227,13.548584 4.19848633,12.8881836 3.87866211,12.1362305 C3.55883789,11.3842773 3.39892578,10.5761719 3.39892578,9.71191406 C3.39892578,8.84765625 3.55883789,8.03955078 3.87866211,7.28759766 C4.19848633,6.53564453 4.64160156,5.87402344 5.20800781,5.30273438 C5.77441406,4.73144531 6.43359375,4.28588867 7.18554688,3.96606445 C7.9375,3.64624023 8.74560547,3.48632812 9.60986328,3.48632812 C10.4741211,3.48632812 11.2822266,3.64624023 12.0341797,3.96606445 C12.7861328,4.28588867 13.4477539,4.73144531 14.019043,5.30273438 C14.590332,5.87402344 15.0371094,6.53564453 15.359375,7.28759766 C15.6816406,8.03955078 15.8427734,8.84765625 15.8427734,9.71191406 C15.8427734,10.5761719 15.6828613,11.3842773 15.3630371,12.1362305 C15.0432129,12.8881836 14.598877,13.548584 14.0300293,14.1174316 C13.4611816,14.6862793 12.7995605,15.1318359 12.045166,15.4541016 C11.2907715,15.7763672 10.4814453,15.9375 9.6171875,15.9375 Z M9.60986328,10.5029297 C9.75634766,10.5029297 9.87841797,10.4541016 9.97607422,10.3564453 C10.0737305,10.2587891 10.1225586,10.1367188 10.1225586,9.99023438 L10.1225586,5.05371094 C10.1225586,4.91210938 10.0737305,4.79248047 9.97607422,4.69482422 C9.87841797,4.59716797 9.75634766,4.54833984 9.60986328,4.54833984 C9.46826172,4.54833984 9.34863281,4.59716797 9.25097656,4.69482422 C9.15332031,4.79248047 9.10449219,4.91210938 9.10449219,5.05371094 L9.10449219,9.48486328 L5.78662109,9.48486328 C5.64013672,9.48486328 5.51806641,9.53369141 5.42041016,9.63134766 C5.32275391,9.72900391 5.27392578,9.84863281 5.27392578,9.99023438 C5.27392578,10.1367188 5.32275391,10.2587891 5.42041016,10.3564453 C5.51806641,10.4541016 5.64013672,10.5029297 5.78662109,10.5029297 L9.60986328,10.5029297 Z" id="􀐫"></path>
        </g>
    </g>
</svg>
