<?xml version="1.0" encoding="UTF-8"?>
<svg width="20px" height="22px" viewBox="0 0 20 22" version="1.1" xmlns="http://www.w3.org/2000/svg" xmlns:xlink="http://www.w3.org/1999/xlink">
    <title>􀝉</title>
    <g id="icons(outlines)" stroke="none" stroke-width="1" fill="none" fill-rule="evenodd">
        <g id="icon/mall-detail-page/穿梭巴士" transform="translate(-3.000000, -2.000000)" fill="#5E5E69" fill-rule="nonzero">
            <path d="M7.04101562,23.078125 C7.36914062,23.078125 7.64599609,22.9667969 7.87158203,22.7441406 C8.09716797,22.5214844 8.20996094,22.2460938 8.20996094,21.9179688 L8.20996094,20.4589844 C9.08300781,20.5175781 9.94287109,20.5629883 10.7895508,20.5952148 C11.6362305,20.6274414 12.4462891,20.6435547 13.2197266,20.6435547 C13.9931641,20.6435547 14.8032227,20.6289062 15.6499023,20.5996094 C16.496582,20.5703125 17.359375,20.5234375 18.2382812,20.4589844 L18.2382812,21.9179688 C18.2382812,22.2460938 18.3496094,22.5214844 18.5722656,22.7441406 C18.7949219,22.9667969 19.0703125,23.078125 19.3984375,23.078125 L20.4355469,23.078125 C20.7636719,23.078125 21.0405273,22.965332 21.2661133,22.7397461 C21.4916992,22.5141602 21.6044922,22.2402344 21.6044922,21.9179688 L21.604,10.976 L21.9912109,10.9755859 C22.2373047,10.9755859 22.4379883,10.9067383 22.5932617,10.769043 C22.7485352,10.6313477 22.8261719,10.4453125 22.8261719,10.2109375 L22.8261719,6.77441406 C22.8261719,6.54003906 22.7485352,6.35253906 22.5932617,6.21191406 C22.4379883,6.07128906 22.2373047,6.00097656 21.9912109,6.00097656 L21.604,6.001 L21.6044922,5.0078125 C21.6044922,4.43945312 21.4433594,3.99414062 21.1210938,3.671875 C20.7988281,3.34960938 20.3417969,3.15332031 19.75,3.08300781 C18.8125,2.97753906 17.7724609,2.89550781 16.6298828,2.83691406 C15.4873047,2.77832031 14.3505859,2.74902344 13.2197266,2.74902344 C12.0947266,2.74902344 10.9624023,2.77685547 9.82275391,2.83251953 C8.68310547,2.88818359 7.64160156,2.97167969 6.69824219,3.08300781 C6.10058594,3.15332031 5.64208984,3.34960938 5.32275391,3.671875 C5.00341797,3.99414062 4.84375,4.43945312 4.84375,5.0078125 L4.843,6.001 L4.44824219,6.00097656 C4.20214844,6.00097656 4.00146484,6.07128906 3.84619141,6.21191406 C3.69091797,6.35253906 3.61328125,6.54003906 3.61328125,6.77441406 L3.61328125,10.2109375 C3.61328125,10.4453125 3.69091797,10.6313477 3.84619141,10.769043 C4.00146484,10.9067383 4.20214844,10.9755859 4.44824219,10.9755859 L4.843,10.976 L4.84375,21.9179688 C4.84375,22.2402344 4.95507812,22.5141602 5.17773438,22.7397461 C5.40039062,22.965332 5.67578125,23.078125 6.00390625,23.078125 L7.04101562,23.078125 Z M13.215332,15.0449219 C12.5444336,15.0449219 11.8764648,15.0302734 11.2114258,15.0009766 C10.5463867,14.9716797 9.89453125,14.9262695 9.25585938,14.8647461 C8.6171875,14.8032227 7.99609375,14.7285156 7.39257812,14.640625 C6.8125,14.546875 6.52246094,14.1982422 6.52246094,13.5947266 L6.52246094,5.79003906 C6.52246094,5.09277344 6.85644531,4.70898438 7.52441406,4.63867188 C8.13378906,4.57421875 8.75488281,4.52001953 9.38769531,4.47607422 C10.0205078,4.43212891 10.6577148,4.39990234 11.2993164,4.37939453 C11.940918,4.35888672 12.5854492,4.34863281 13.2329102,4.34863281 C13.8803711,4.34863281 14.5249023,4.35888672 15.1665039,4.37939453 C15.8081055,4.39990234 16.4438477,4.43212891 17.0737305,4.47607422 C17.7036133,4.52001953 18.3232422,4.57421875 18.9326172,4.63867188 C19.5947266,4.70898438 19.9257812,5.09277344 19.9257812,5.79003906 L19.9257812,13.5947266 C19.9257812,14.1982422 19.6357422,14.546875 19.0556641,14.640625 C18.4462891,14.7285156 17.8193359,14.8032227 17.1748047,14.8647461 C16.5302734,14.9262695 15.8769531,14.9716797 15.2148438,15.0009766 C14.5527344,15.0302734 13.8862305,15.0449219 13.215332,15.0449219 Z M7.9375,18.5605469 C7.61523438,18.5605469 7.34570312,18.4521484 7.12890625,18.2353516 C6.91210938,18.0185547 6.80371094,17.7490234 6.80371094,17.4267578 C6.80371094,17.0986328 6.91210938,16.8276367 7.12890625,16.6137695 C7.34570312,16.3999023 7.61523438,16.2929688 7.9375,16.2929688 C8.25976562,16.2929688 8.52929688,16.3999023 8.74609375,16.6137695 C8.96289062,16.8276367 9.07128906,17.0986328 9.07128906,17.4267578 C9.07128906,17.7490234 8.96289062,18.0185547 8.74609375,18.2353516 C8.52929688,18.4521484 8.25976562,18.5605469 7.9375,18.5605469 Z M18.5019531,18.5605469 C18.1796875,18.5605469 17.9116211,18.4521484 17.6977539,18.2353516 C17.4838867,18.0185547 17.3769531,17.7490234 17.3769531,17.4267578 C17.3769531,17.0986328 17.4838867,16.8276367 17.6977539,16.6137695 C17.9116211,16.3999023 18.1796875,16.2929688 18.5019531,16.2929688 C18.8300781,16.2929688 19.1025391,16.3999023 19.3193359,16.6137695 C19.5361328,16.8276367 19.6445312,17.0986328 19.6445312,17.4267578 C19.6445312,17.7490234 19.5361328,18.0185547 19.3193359,18.2353516 C19.1025391,18.4521484 18.8300781,18.5605469 18.5019531,18.5605469 Z M15.1269531,18.1738281 L11.3037109,18.1738281 C11.0751953,18.1738281 10.8891602,18.1020508 10.7456055,17.9584961 C10.6020508,17.8149414 10.5302734,17.6318359 10.5302734,17.4091797 C10.5302734,17.1806641 10.6020508,16.9960938 10.7456055,16.8554688 C10.8891602,16.7148438 11.0751953,16.6445312 11.3037109,16.6445312 L15.1269531,16.6445312 C15.3496094,16.6445312 15.5327148,16.7148438 15.6762695,16.8554688 C15.8198242,16.9960938 15.8916016,17.1806641 15.8916016,17.4091797 C15.8916016,17.6318359 15.8198242,17.8149414 15.6762695,17.9584961 C15.5327148,18.1020508 15.3496094,18.1738281 15.1269531,18.1738281 Z" id="􀝉"></path>
        </g>
    </g>
</svg>
