<?xml version="1.0" encoding="UTF-8"?>
<svg width="17px" height="12px" viewBox="0 0 17 12" version="1.1" xmlns="http://www.w3.org/2000/svg" xmlns:xlink="http://www.w3.org/1999/xlink">
    <title>􀦠</title>
    <g id="Page-1" stroke="none" stroke-width="1" fill="none" fill-rule="evenodd">
        <g id="mini-icon/merchant-card􀦠" transform="translate(-1.000000, -3.000000)" fill="#ABABB8" fill-rule="nonzero">
            <path d="M14.9482422,14.9023438 C15.6409505,14.9023438 16.1616211,14.7291667 16.5102539,14.3828125 C16.8588867,14.0364583 17.0332031,13.523763 17.0332031,12.8447266 L17.0332031,5.83789062 C17.0332031,5.15885417 16.8588867,4.64615885 16.5102539,4.29980469 C16.1616211,3.95345052 15.6409505,3.78027344 14.9482422,3.78027344 L3.86035156,3.78027344 C3.17220052,3.78027344 2.65266927,3.9523112 2.30175781,4.29638672 C1.95084635,4.64046224 1.77539062,5.15429688 1.77539062,5.83789062 L1.77539062,12.8447266 C1.77539062,13.5283203 1.95084635,14.0421549 2.30175781,14.3862305 C2.65266927,14.730306 3.17220052,14.9023438 3.86035156,14.9023438 L14.9482422,14.9023438 Z M2.95117188,5.92675781 C2.95117188,5.6031901 3.03434245,5.359375 3.20068359,5.1953125 C3.36702474,5.03125 3.60286458,4.94921875 3.90820312,4.94921875 L8.994,4.95 L8.99414062,7.0546875 C8.85742187,6.79492188 8.69108073,6.56705729 8.49511719,6.37109375 C8.29915365,6.17513021 8.08154297,6.02587891 7.84228516,5.92333984 C7.60302734,5.82080078 7.35123698,5.76953125 7.08691406,5.76953125 C6.6266276,5.76953125 6.2438151,5.92333984 5.93847656,6.23095703 C5.63313802,6.53857422 5.48046875,6.92480469 5.48046875,7.38964844 C5.48046875,7.64941406 5.53629557,7.89322917 5.64794922,8.12109375 C5.75960286,8.34895833 5.91455078,8.55403646 6.11279297,8.73632812 C6.31103516,8.91861979 6.54003906,9.07128906 6.79980469,9.19433594 L2.951,9.195 L2.95117188,5.92675781 Z M15.857,9.195 L12.0087891,9.19433594 C12.2685547,9.07128906 12.4975586,8.91861979 12.6958008,8.73632812 C12.894043,8.55403646 13.0489909,8.34895833 13.1606445,8.12109375 C13.2722982,7.89322917 13.328125,7.64941406 13.328125,7.38964844 C13.328125,6.92480469 13.1743164,6.53857422 12.8666992,6.23095703 C12.559082,5.92333984 12.1751302,5.76953125 11.7148438,5.76953125 C11.4550781,5.76953125 11.2055664,5.82080078 10.9663086,5.92333984 C10.7270508,6.02587891 10.5094401,6.17513021 10.3134766,6.37109375 C10.117513,6.56705729 9.95117188,6.79492188 9.81445312,7.0546875 L9.814,4.95 L14.9003906,4.94921875 C15.2057292,4.94921875 15.441569,5.03125 15.6079102,5.1953125 C15.7742513,5.359375 15.8574219,5.6031901 15.8574219,5.92675781 L15.857,9.195 Z M8.87792969,9.11230469 L8.70019531,9.11230469 C8.29003906,9.11230469 7.91292318,9.03027344 7.56884766,8.86621094 C7.22477214,8.70214844 6.94791667,8.49479167 6.73828125,8.24414062 C6.52864583,7.99348958 6.42382812,7.73828125 6.42382812,7.47851562 C6.42382812,7.24153646 6.48990885,7.05582682 6.62207031,6.92138672 C6.75423177,6.78694661 6.93196615,6.71972656 7.15527344,6.71972656 C7.46061198,6.71972656 7.74430339,6.82226562 8.00634766,7.02734375 C8.26839193,7.23242188 8.47916667,7.50244141 8.63867188,7.83740234 C8.79817708,8.17236328 8.87792969,8.53808594 8.87792969,8.93457031 L8.87792969,9.11230469 Z M10.1083984,9.11230469 L9.93066406,9.11230469 L9.93066406,8.93457031 C9.93066406,8.53808594 10.0104167,8.17236328 10.1699219,7.83740234 C10.3294271,7.50244141 10.5402018,7.23242188 10.8022461,7.02734375 C11.0642904,6.82226562 11.3479818,6.71972656 11.6533203,6.71972656 C11.8766276,6.71972656 12.054362,6.78694661 12.1865234,6.92138672 C12.3186849,7.05582682 12.3847656,7.24153646 12.3847656,7.47851562 C12.3847656,7.73828125 12.2799479,7.99348958 12.0703125,8.24414062 C11.8606771,8.49479167 11.5838216,8.70214844 11.2397461,8.86621094 C10.8956706,9.03027344 10.5185547,9.11230469 10.1083984,9.11230469 Z M14.9003906,13.7333984 L9.814,13.734 L9.81445312,10.4316406 L9.86230469,10.4316406 C9.9671224,10.7552083 10.1311849,11.0639648 10.3544922,11.3579102 C10.5777995,11.6518555 10.8295898,11.9138997 11.1098633,12.144043 C11.3901367,12.3741862 11.6761068,12.5621745 11.9677734,12.7080078 C12.2594401,12.8538411 12.5283203,12.9472656 12.7744141,12.9882812 C12.9658203,13.0201823 13.1173503,12.9780273 13.2290039,12.8618164 C13.3406576,12.7456055 13.3964844,12.616862 13.3964844,12.4755859 C13.3964844,12.3115234 13.3497721,12.179362 13.2563477,12.0791016 C13.1629232,11.9788411 13.0273438,11.9195964 12.8496094,11.9013672 C12.6354167,11.8740234 12.4075521,11.7931315 12.1660156,11.6586914 C11.9244792,11.5242513 11.6897786,11.3601888 11.4619141,11.1665039 C11.2340495,10.972819 11.0301107,10.7677409 10.8500977,10.5512695 C10.6700846,10.3347982 10.5345052,10.1308594 10.4433594,9.93945312 L15.857,9.94 L15.8574219,12.7558594 C15.8574219,13.0794271 15.7742513,13.3232422 15.6079102,13.4873047 C15.441569,13.6513672 15.2057292,13.7333984 14.9003906,13.7333984 Z M8.994,13.734 L3.90820312,13.7333984 C3.60286458,13.7333984 3.36702474,13.6513672 3.20068359,13.4873047 C3.03434245,13.3232422 2.95117188,13.0794271 2.95117188,12.7558594 L2.951,9.94 L8.36523437,9.93945312 C8.27408854,10.1308594 8.13850911,10.3347982 7.95849609,10.5512695 C7.77848307,10.7677409 7.57454427,10.972819 7.34667969,11.1665039 C7.1188151,11.3601888 6.88411458,11.5242513 6.64257812,11.6586914 C6.40104167,11.7931315 6.17317708,11.8740234 5.95898438,11.9013672 C5.78125,11.9195964 5.6468099,11.9788411 5.55566406,12.0791016 C5.46451823,12.179362 5.41894531,12.3115234 5.41894531,12.4755859 C5.41894531,12.616862 5.47363281,12.7456055 5.58300781,12.8618164 C5.69238281,12.9780273 5.84277344,13.0201823 6.03417969,12.9882812 C6.28027344,12.9472656 6.54915365,12.8538411 6.84082031,12.7080078 C7.13248698,12.5621745 7.41845703,12.3741862 7.69873047,12.144043 C7.97900391,11.9138997 8.23079427,11.6518555 8.45410156,11.3579102 C8.67740885,11.0639648 8.84147135,10.7552083 8.94628906,10.4316406 L8.99414062,10.4316406 L8.994,13.734 Z" id="􀦠"></path>
        </g>
    </g>
</svg>
