<?xml version="1.0" encoding="UTF-8"?>
<svg width="36px" height="36px" viewBox="0 0 36 36" version="1.1" xmlns="http://www.w3.org/2000/svg" xmlns:xlink="http://www.w3.org/1999/xlink">
    <title>icon/bar/􀊴</title>
    <g id="icon/bar/􀊴" stroke="none" stroke-width="1" fill="none" fill-rule="evenodd">
        <path d="M18.2050781,32.0283203 C20.1289062,32.0283203 21.9355469,31.6621094 23.625,30.9296875 C25.3144531,30.1972656 26.8061523,29.1865234 28.1000977,27.8974609 C29.394043,26.6083984 30.4072266,25.1166992 31.1396484,23.4223633 C31.8720703,21.7280273 32.2382812,19.9189453 32.2382812,17.9951172 C32.2382812,16.0810547 31.8696289,14.2768555 31.1323242,12.5825195 C30.3950195,10.8881836 29.3793945,9.39404297 28.0854492,8.10009766 C26.7915039,6.80615234 25.2998047,5.79296875 23.6103516,5.06054688 C21.9208984,4.328125 20.1142578,3.96191406 18.1904297,3.96191406 C16.2763672,3.96191406 14.4746094,4.328125 12.7851562,5.06054688 C11.0957031,5.79296875 9.60400391,6.80615234 8.31005859,8.10009766 C7.01611328,9.39404297 6.00292969,10.8881836 5.27050781,12.5825195 C4.53808594,14.2768555 4.171875,16.0810547 4.171875,17.9951172 C4.171875,19.9189453 4.54052734,21.7280273 5.27783203,23.4223633 C6.01513672,25.1166992 7.02832031,26.6083984 8.31738281,27.8974609 C9.60644531,29.1865234 11.0957031,30.1972656 12.7851562,30.9296875 C14.4746094,31.6621094 16.28125,32.0283203 18.2050781,32.0283203 Z M18.2050781,29.9042969 C16.5546875,29.9042969 15.0092773,29.5966797 13.5688477,28.9814453 C12.128418,28.3662109 10.8662109,27.5141602 9.78222656,26.425293 C8.69824219,25.3364258 7.85107422,24.0717773 7.24072266,22.6313477 C6.63037109,21.190918 6.32519531,19.6455078 6.32519531,17.9951172 C6.32519531,16.3544922 6.63037109,14.8139648 7.24072266,13.3735352 C7.85107422,11.9331055 8.69824219,10.668457 9.78222656,9.57958984 C10.8662109,8.49072266 12.1259766,7.63867188 13.5615234,7.0234375 C14.9970703,6.40820312 16.5400391,6.10058594 18.1904297,6.10058594 C19.8505859,6.10058594 21.3984375,6.40820312 22.8339844,7.0234375 C24.2695313,7.63867188 25.5317383,8.49072266 26.6206055,9.57958984 C27.7094727,10.668457 28.5615234,11.9331055 29.1767578,13.3735352 C29.7919922,14.8139648 30.0998383,16.3544922 30.0998383,17.9951172 C30.109375,19.6455078 29.8066406,21.190918 29.1914063,22.6313477 C28.5761719,24.0717773 27.7241211,25.3364258 26.6352539,26.425293 C25.5463867,27.5141602 24.2817383,28.3662109 22.8413086,28.9814453 C21.4008789,29.5966797 19.8554688,29.9042969 18.2050781,29.9042969 Z M18.234375,25.2167969 C18.3125,25.2167969 18.4101562,25.1826172 18.5273438,25.1142578 C18.6445312,25.0458984 18.7519531,24.9775391 18.8496094,24.9091797 C19.40625,24.5478516 19.9897461,24.1279297 20.6000977,23.6494141 C21.2104492,23.1708984 21.8085938,22.6484375 22.3945312,22.0820312 C22.9804688,21.515625 23.5102539,20.9101562 23.9838867,20.265625 C24.4575195,19.6210938 24.8383789,18.949707 25.1264648,18.2514648 C25.4145508,17.5532227 25.5585938,16.8330078 25.5585938,16.0908203 C25.5585938,14.8798828 25.1801758,13.8789062 24.4233398,13.0878906 C23.6665039,12.296875 22.7021484,11.9013672 21.5302734,11.9013672 C20.7978516,11.9013672 20.1435547,12.0942383 19.5673828,12.4799805 C18.9912109,12.8657227 18.5371094,13.3710938 18.2050781,13.9960938 C17.8632812,13.3710938 17.4091797,12.8657227 16.8427734,12.4799805 C16.2763672,12.0942383 15.6220703,11.9013672 14.8798828,11.9013672 C13.7177734,11.9013672 12.7558594,12.296875 11.9941406,13.0878906 C11.2324219,13.8789062 10.8515625,14.8798828 10.8515625,16.0908203 C10.8515625,16.8330078 10.9931641,17.5556641 11.2763672,18.2587891 C11.5595703,18.9619141 11.9379883,19.6357422 12.4116211,20.2802734 C12.8852539,20.9248047 13.4150391,21.5327148 14.0009766,22.1040039 C14.5869141,22.675293 15.1875,23.1977539 15.8027344,23.6713867 C16.4179688,24.1450195 16.9990234,24.5576172 17.5458984,24.9091797 C17.6630859,24.9775391 17.7851562,25.0458984 17.9121094,25.1142578 C18.0390625,25.1826172 18.1464844,25.2167969 18.234375,25.2167969 Z" id="􀊸" fill="#53535E" fill-rule="nonzero"></path>
    </g>
</svg>