<?xml version="1.0" encoding="UTF-8"?>
<svg width="15px" height="14px" viewBox="0 0 15 14" version="1.1" xmlns="http://www.w3.org/2000/svg" xmlns:xlink="http://www.w3.org/1999/xlink">
    <title>􀐫</title>
    <g id="Page-1" stroke="none" stroke-width="1" fill="none" fill-rule="evenodd">
        <g id="mini-icon/Mall-Card-XL􀐫" transform="translate(-2.000000, -2.000000)" fill="#535360" fill-rule="nonzero">
            <path d="M9.49682617,15.9804688 C13.0959473,15.9804688 16.0666504,13.0097656 16.0666504,9.41699219 C16.0666504,5.82421875 13.0895996,2.85351562 9.49047852,2.85351562 C5.89770508,2.85351562 2.93334961,5.82421875 2.93334961,9.41699219 C2.93334961,13.0097656 5.90405273,15.9804688 9.49682617,15.9804688 Z M9.49682617,14.6728516 C6.58325195,14.6728516 4.25366211,12.3305664 4.25366211,9.41699219 C4.25366211,6.50341797 6.58325195,4.16748047 9.49047852,4.16748047 C12.4040527,4.16748047 14.7463379,6.50341797 14.7526984,9.41699219 C14.7590332,12.3305664 12.4104004,14.6728516 9.49682617,14.6728516 Z M9.49047852,10.2167969 C9.7824707,10.2167969 10.0046387,9.99462891 10.0046387,9.70898438 L10.0046387,5.55761719 C10.0046387,5.27197266 9.7824707,5.04980469 9.49047852,5.04980469 C9.21118164,5.04980469 8.98901367,5.27197266 8.98901367,5.55761719 L8.98901367,9.20117188 L6.29760742,9.20117188 C6.01196289,9.20117188 5.78979492,9.42333984 5.78979492,9.70898438 C5.78979492,9.99462891 6.01196289,10.2167969 6.29760742,10.2167969 L9.49047852,10.2167969 Z" id="􀐫"></path>
        </g>
    </g>
</svg>
