<?xml version="1.0" encoding="UTF-8"?>
<svg width="36px" height="36px" viewBox="0 0 36 36" version="1.1" xmlns="http://www.w3.org/2000/svg" xmlns:xlink="http://www.w3.org/1999/xlink">
    <title>icon/bar/所有优惠</title>
    <g id="icon/bar/所有优惠" stroke="none" stroke-width="1" fill="none" fill-rule="evenodd">
        <path d="M18.2050781,32.0283203 C20.1289062,32.0283203 21.9355469,31.6621094 23.625,30.9296875 C25.3144531,30.1972656 26.8061523,29.1865234 28.1000977,27.8974609 C29.394043,26.6083984 30.4072266,25.1166992 31.1396484,23.4223633 C31.8720703,21.7280273 32.2382812,19.9189453 32.2382812,17.9951172 C32.2382812,16.0810547 31.8696289,14.2768555 31.1323242,12.5825195 C30.3950195,10.8881836 29.3793945,9.39404297 28.0854492,8.10009766 C26.7915039,6.80615234 25.2998047,5.79296875 23.6103516,5.06054688 C21.9208984,4.328125 20.1142578,3.96191406 18.1904297,3.96191406 C16.2763672,3.96191406 14.4746094,4.328125 12.7851562,5.06054688 C11.0957031,5.79296875 9.60400391,6.80615234 8.31005859,8.10009766 C7.01611328,9.39404297 6.00292969,10.8881836 5.27050781,12.5825195 C4.53808594,14.2768555 4.171875,16.0810547 4.171875,17.9951172 C4.171875,19.9189453 4.54052734,21.7280273 5.27783203,23.4223633 C6.01513672,25.1166992 7.02832031,26.6083984 8.31738281,27.8974609 C9.60644531,29.1865234 11.0957031,30.1972656 12.7851562,30.9296875 C14.4746094,31.6621094 16.28125,32.0283203 18.2050781,32.0283203 Z M18.2050781,29.9042969 C16.5546875,29.9042969 15.0092773,29.5966797 13.5688477,28.9814453 C12.128418,28.3662109 10.8662109,27.5141602 9.78222656,26.425293 C8.69824219,25.3364258 7.85107422,24.0717773 7.24072266,22.6313477 C6.63037109,21.190918 6.32519531,19.6455078 6.32519531,17.9951172 C6.32519531,16.3544922 6.63037109,14.8139648 7.24072266,13.3735352 C7.85107422,11.9331055 8.69824219,10.668457 9.78222656,9.57958984 C10.8662109,8.49072266 12.1259766,7.63867188 13.5615234,7.0234375 C14.9970703,6.40820312 16.5400391,6.10058594 18.1904297,6.10058594 C19.8505859,6.10058594 21.3984375,6.40820312 22.8339844,7.0234375 C24.2695312,7.63867188 25.5317383,8.49072266 26.6206055,9.57958984 C27.7094727,10.668457 28.5615234,11.9331055 29.1767578,13.3735352 C29.7919922,14.8139648 30.0998383,16.3544922 30.0998383,17.9951172 C30.109375,19.6455078 29.8066406,21.190918 29.1914062,22.6313477 C28.5761719,24.0717773 27.7241211,25.3364258 26.6352539,26.425293 C25.5463867,27.5141602 24.2817383,28.3662109 22.8413086,28.9814453 C21.4008789,29.5966797 19.8554688,29.9042969 18.2050781,29.9042969 Z M12.3603516,21.5400391 L12.3603516,15.9882812 C12.3603516,15.1484375 12.5776367,14.5136719 13.012207,14.0839844 C13.4467773,13.6542969 14.0839844,13.4394531 14.9238281,13.4394531 L23.2001953,13.4394531 L23.2001953,13.234375 C23.2001953,12.6191406 23.0463867,12.1577148 22.7387695,11.8500977 C22.4311523,11.5424805 21.9648438,11.3886719 21.3398438,11.3886719 L11.9794922,11.3886719 C11.3642578,11.3886719 10.9003906,11.5424805 10.5878906,11.8500977 C10.2753906,12.1577148 10.1191406,12.6191406 10.1191406,13.234375 L10.1191406,19.7089844 C10.1191406,20.3144531 10.2753906,20.7709961 10.5878906,21.0786133 C10.9003906,21.3862305 11.3642578,21.5400391 11.9794922,21.5400391 L12.3603516,21.5400391 Z M24.3574219,24.4404297 C24.9824219,24.4404297 25.4511719,24.2866211 25.7636719,23.9790039 C26.0761719,23.6713867 26.2324219,23.2050781 26.2324219,22.5800781 L26.2324219,16.0615234 C26.2324219,15.4658203 26.0761719,15.0117188 25.7636719,14.6992188 C25.4511719,14.3867188 24.9824219,14.2304688 24.3574219,14.2304688 L15.0117188,14.2304688 C14.3769531,14.2304688 13.9082031,14.3867188 13.6054688,14.6992188 C13.3027344,15.0117188 13.1513672,15.4658203 13.1513672,16.0615234 L13.1513672,22.5800781 C13.1513672,23.2050781 13.3027344,23.6713867 13.6054688,23.9790039 C13.9082031,24.2866211 14.3769531,24.4404297 15.0117188,24.4404297 L24.3574219,24.4404297 Z" id="􀤽" fill="#53535E" fill-rule="nonzero"></path>
    </g>
</svg>