<?xml version="1.0" encoding="UTF-8"?>
<svg width="17px" height="23px" viewBox="0 0 17 23" version="1.1" xmlns="http://www.w3.org/2000/svg" xmlns:xlink="http://www.w3.org/1999/xlink">
    <title>􀝆</title>
    <g id="Page-1" stroke="none" stroke-width="1" fill="none" fill-rule="evenodd">
        <g id="icon/mall-detail-page/地铁" transform="translate(-5.000000, -1.000000)" fill="#5E5E69" fill-rule="nonzero">
            <path d="M7.65625,23.640625 C7.87304688,23.640625 8.04296875,23.5410156 8.16601562,23.3417969 L8.667,22.534 L17.798,22.534 L18.2998047,23.3417969 C18.4228516,23.5410156 18.5957031,23.640625 18.8183594,23.640625 L19.3105469,23.640625 C19.4453125,23.640625 19.5537109,23.6010742 19.6357422,23.5219727 C19.7177734,23.4428711 19.7646484,23.3461914 19.7763672,23.2319336 C19.7880859,23.1176758 19.7558594,22.9990234 19.6796875,22.8759766 L17.991,20.142 L18.2053223,20.1359177 C18.7744141,20.1048355 19.2717285,19.9649658 19.6972656,19.7163086 C20.1835938,19.4321289 20.5556641,19.0366211 20.8134766,18.5297852 C21.0712891,18.0229492 21.2001953,17.4414062 21.2001953,16.7851562 L21.2001953,11.4150391 C21.2001953,10.6298828 21.1694336,9.84912109 21.1079102,9.07275391 C21.0463867,8.29638672 20.9628906,7.5625 20.8574219,6.87109375 C20.7519531,6.1796875 20.6318359,5.56738281 20.4970703,5.03417969 C20.3505859,4.41308594 20.1147461,3.86816406 19.7895508,3.39941406 C19.4643555,2.93066406 19.065918,2.55566406 18.5942383,2.27441406 C18.1225586,1.99316406 17.5966797,1.8203125 17.0166016,1.75585938 C16.7294922,1.7265625 16.234375,1.68994141 15.53125,1.64599609 C14.828125,1.60205078 14.0576172,1.58007812 13.2197266,1.58007812 C12.2880859,1.58007812 11.4941406,1.60205078 10.8378906,1.64599609 C10.1816406,1.68994141 9.70996094,1.7265625 9.42285156,1.75585938 C8.83691406,1.8203125 8.30810547,1.99316406 7.83642578,2.27441406 C7.36474609,2.55566406 6.96777344,2.93066406 6.64550781,3.39941406 C6.32324219,3.86816406 6.08886719,4.41308594 5.94238281,5.03417969 C5.80761719,5.56738281 5.6875,6.17382812 5.58203125,6.85351562 C5.4765625,7.53320313 5.39306641,8.25390625 5.33154297,9.015625 C5.27001953,9.77734375 5.23925781,10.5507812 5.23925781,11.3359375 L5.23925781,16.7851562 C5.23925781,17.4414062 5.36816406,18.0229492 5.62597656,18.5297852 C5.88378906,19.0366211 6.25439453,19.4321289 6.73779297,19.7163086 C7.1607666,19.9649658 7.65888214,20.1048355 8.23213959,20.1359177 L8.469,20.143 L6.76855469,22.8759766 C6.69238281,22.9990234 6.66162109,23.1191406 6.67626953,23.2363281 C6.69091797,23.3535156 6.74072266,23.4501953 6.82568359,23.5263672 C6.91064453,23.6025391 7.0234375,23.640625 7.1640625,23.640625 L7.65625,23.640625 Z M17.7636719,18.9912109 L8.66699219,18.9912109 C8.14550781,18.9912109 7.71630859,18.8974609 7.37939453,18.7099609 C7.04248047,18.5224609 6.79345703,18.2617188 6.63232422,17.9277344 C6.47119141,17.59375 6.390625,17.2128906 6.390625,16.7851562 L6.390625,11.3359375 C6.390625,10.7675781 6.40820312,10.2036133 6.44335938,9.64404297 C6.47851562,9.08447266 6.52685547,8.54541016 6.58837891,8.02685547 C6.64990234,7.50830078 6.72021484,7.01757813 6.79931641,6.5546875 C6.87841797,6.09179688 6.96484375,5.66992188 7.05859375,5.2890625 C7.16992188,4.82617188 7.34130859,4.42480469 7.57275391,4.08496094 C7.80419922,3.74511719 8.08544922,3.47412109 8.41650391,3.27197266 C8.74755859,3.06982422 9.12109375,2.94824219 9.53710938,2.90722656 C9.8359375,2.87207031 10.3017578,2.83398438 10.9345703,2.79296875 C11.5673828,2.75195312 12.3291016,2.73144531 13.2197266,2.73144531 C14.0166016,2.73144531 14.753418,2.75195312 15.4301758,2.79296875 C16.1069336,2.83398438 16.5947266,2.87207031 16.8935547,2.90722656 C17.3095703,2.94824219 17.6845703,3.06982422 18.0185547,3.27197266 C18.3525391,3.47412109 18.6352539,3.74511719 18.8666992,4.08496094 C19.0981445,4.42480469 19.2695312,4.82617188 19.3808594,5.2890625 C19.46875,5.66992188 19.5537109,6.09472656 19.6357422,6.56347656 C19.7177734,7.03222656 19.7895508,7.53320312 19.8510742,8.06640625 C19.9125977,8.59960938 19.9609375,9.14892578 19.9960938,9.71435547 C20.03125,10.2797852 20.0488281,10.8466797 20.0488281,11.4150391 L20.0488281,16.7851562 C20.0488281,17.2128906 19.9682617,17.59375 19.8071289,17.9277344 C19.6459961,18.2617188 19.3969727,18.5224609 19.0600586,18.7099609 C18.7231445,18.8974609 18.2910156,18.9912109 17.7636719,18.9912109 Z M15.4609375,5.04296875 C15.625,5.04296875 15.7568359,4.99316406 15.8564453,4.89355469 C15.9560547,4.79394531 16.0058594,4.66210938 16.0058594,4.49804688 C16.0058594,4.33984375 15.9560547,4.21240234 15.8564453,4.11572266 C15.7568359,4.01904297 15.625,3.97070312 15.4609375,3.97070312 L10.9697266,3.97070312 C10.8056641,3.97070312 10.675293,4.01904297 10.5786133,4.11572266 C10.4819336,4.21240234 10.4335938,4.33984375 10.4335938,4.49804688 C10.4335938,4.66210938 10.4819336,4.79394531 10.5786133,4.89355469 C10.675293,4.99316406 10.8056641,5.04296875 10.9697266,5.04296875 L15.4609375,5.04296875 Z M13.2197266,13.9726562 C14.3212891,13.9667969 15.2866211,13.9433594 16.1157227,13.9023438 C16.9448242,13.8613281 17.5966797,13.8115234 18.0712891,13.7529297 C18.3349609,13.7177734 18.5224609,13.6196289 18.6337891,13.4584961 C18.7451172,13.2973633 18.8007812,13.09375 18.8007812,12.8476562 L18.8007812,10.8261719 C18.8007812,10.234375 18.7832031,9.68652344 18.7480469,9.18261719 C18.7128906,8.67871094 18.6689453,8.23925781 18.6162109,7.86425781 C18.5634766,7.48925781 18.5136719,7.19921875 18.4667969,6.99414062 C18.4199219,6.80078125 18.3364258,6.63964844 18.2163086,6.51074219 C18.0961914,6.38183594 17.9365234,6.30566406 17.7373047,6.28222656 C17.4150391,6.24121094 17.0649414,6.20751953 16.6870117,6.18115234 C16.309082,6.15478516 15.8447266,6.1328125 15.2939453,6.11523438 C14.7431641,6.09765625 14.0517578,6.08886719 13.2197266,6.08886719 C12.3818359,6.08886719 11.6875,6.09765625 11.1367188,6.11523438 C10.5859375,6.1328125 10.1201172,6.15478516 9.73925781,6.18115234 C9.35839844,6.20751953 9.00097656,6.24121094 8.66699219,6.28222656 C8.47949219,6.30566406 8.32714844,6.38183594 8.20996094,6.51074219 C8.09277344,6.63964844 8.01074219,6.80078125 7.96386719,6.99414062 C7.91699219,7.19921875 7.8671875,7.48925781 7.81445312,7.86425781 C7.76171875,8.23925781 7.71777344,8.67871094 7.68261719,9.18261719 C7.64746094,9.68652344 7.62988281,10.234375 7.62988281,10.8261719 L7.62988281,12.8476562 C7.62988281,13.09375 7.68554688,13.2973633 7.796875,13.4584961 C7.90820312,13.6196289 8.09570312,13.7177734 8.359375,13.7529297 C8.83398438,13.8115234 9.48583984,13.8613281 10.3149414,13.9023438 C11.144043,13.9433594 12.1123047,13.9667969 13.2197266,13.9726562 Z M17.2890625,17.6289062 C17.6289062,17.6289062 17.9160156,17.5117188 18.1503906,17.2773438 C18.3847656,17.0429688 18.5019531,16.7529297 18.5019531,16.4072266 C18.5019531,16.0673828 18.3862305,15.7817383 18.1547852,15.550293 C17.9233398,15.3188477 17.6347656,15.203125 17.2890625,15.203125 C16.9433594,15.203125 16.6533203,15.3188477 16.4189453,15.550293 C16.1845703,15.7817383 16.0673828,16.0673828 16.0673828,16.4072266 C16.0673828,16.7529297 16.1845703,17.0429688 16.4189453,17.2773438 C16.6533203,17.5117188 16.9433594,17.6289062 17.2890625,17.6289062 Z M9.1328125,17.6201172 C9.47851562,17.6201172 9.76708984,17.5058594 9.99853516,17.2773438 C10.2299805,17.0488281 10.3457031,16.7587891 10.3457031,16.4072266 C10.3457031,16.0615234 10.2314453,15.7758789 10.0029297,15.550293 C9.77441406,15.324707 9.484375,15.2119141 9.1328125,15.2119141 C8.78710938,15.2119141 8.50146484,15.324707 8.27587891,15.550293 C8.05029297,15.7758789 7.9375,16.0615234 7.9375,16.4072266 C7.9375,16.7587891 8.05029297,17.0488281 8.27587891,17.2773438 C8.50146484,17.5058594 8.78710938,17.6201172 9.1328125,17.6201172 Z M16.98,21.215 L9.485,21.215 L10.15,20.143 L16.315,20.143 L16.98,21.215 Z" id="􀝆"></path>
        </g>
    </g>
</svg>
