<?xml version="1.0" encoding="UTF-8"?>
<svg width="21px" height="24px" viewBox="0 0 21 24" version="1.1" xmlns="http://www.w3.org/2000/svg" xmlns:xlink="http://www.w3.org/1999/xlink">
    <title>􀲮</title>
    <g id="Page-1" stroke="none" stroke-width="1" fill="none" fill-rule="evenodd">
        <g id="icon/mall-detail-page/母婴" transform="translate(-3.000000, 0.000000)" fill="#5E5E69" fill-rule="nonzero">
            <path d="M10.4511719,4.05859375 C10.5566406,4.05859375 10.6240234,4.00292969 10.6533203,3.89160156 C10.7353516,3.45214844 10.8100586,3.13720703 10.8774414,2.94677734 C10.9448242,2.75634766 11.0737305,2.62451172 11.2641602,2.55126953 C11.4545898,2.47802734 11.7724609,2.40039062 12.2177734,2.31835938 C12.3408203,2.2890625 12.4023438,2.22167969 12.4023438,2.11621094 C12.4023438,2.00488281 12.3408203,1.93457031 12.2177734,1.90527344 C11.8837891,1.84082031 11.6259766,1.78222656 11.4443359,1.72949219 C11.2626953,1.67675781 11.1279297,1.60351562 11.0400391,1.50976562 C10.9521484,1.41601562 10.8833008,1.27832031 10.8334961,1.09667969 C10.7836914,0.915039062 10.7236328,0.663085938 10.6533203,0.340820312 C10.6240234,0.223632812 10.5566406,0.165039062 10.4511719,0.165039062 C10.3398438,0.165039062 10.2724609,0.223632812 10.2490234,0.340820312 C10.1787109,0.663085938 10.1186523,0.915039062 10.0688477,1.09667969 C10.019043,1.27832031 9.94873047,1.41601562 9.85791016,1.50976562 C9.76708984,1.60351562 9.63085938,1.67675781 9.44921875,1.72949219 C9.26757812,1.78222656 9.00976562,1.84082031 8.67578125,1.90527344 C8.55273438,1.93457031 8.49121094,2.00488281 8.49121094,2.11621094 C8.49121094,2.22167969 8.55273438,2.2890625 8.67578125,2.31835938 C9.00976562,2.3828125 9.26904297,2.44140625 9.45361328,2.49414062 C9.63818359,2.546875 9.77587891,2.61865234 9.86669922,2.70947266 C9.95751953,2.80029297 10.027832,2.93798828 10.0776367,3.12255859 C10.1274414,3.30712891 10.1845703,3.56347656 10.2490234,3.89160156 C10.2724609,4.00292969 10.3398438,4.05859375 10.4511719,4.05859375 Z M16.3310547,6.43164062 C16.4951172,6.43164062 16.5830078,6.34667969 16.5947266,6.17675781 C16.6591797,5.66113281 16.7265625,5.25683594 16.796875,4.96386719 C16.8671875,4.67089844 16.9785156,4.44970703 17.1308594,4.30029297 C17.2832031,4.15087891 17.5102539,4.03662109 17.8120117,3.95751953 C18.1137695,3.87841797 18.5253906,3.79492188 19.046875,3.70703125 C19.2285156,3.68945312 19.3193359,3.60449219 19.3193359,3.45214844 C19.3193359,3.30566406 19.2402344,3.22070312 19.0820312,3.19726562 C18.5546875,3.09765625 18.1386719,3.00830078 17.8339844,2.92919922 C17.5292969,2.85009766 17.2978516,2.73730469 17.1396484,2.59082031 C16.9814453,2.44433594 16.8671875,2.22753906 16.796875,1.94042969 C16.7265625,1.65332031 16.6591797,1.25195312 16.5947266,0.736328125 C16.5830078,0.56640625 16.4951172,0.481445312 16.3310547,0.481445312 C16.1787109,0.481445312 16.0966797,0.563476562 16.0849609,0.727539062 C16.0146484,1.24902344 15.9443359,1.65917969 15.8740234,1.95800781 C15.8037109,2.25683594 15.6923828,2.48242188 15.5400391,2.63476562 C15.3876953,2.78710938 15.1591797,2.89990234 14.8544922,2.97314453 C14.5498047,3.04638672 14.1279297,3.12109375 13.5888672,3.19726562 C13.5185547,3.203125 13.4614258,3.22949219 13.4174805,3.27636719 C13.3735352,3.32324219 13.3515625,3.38183594 13.3515625,3.45214844 C13.3515625,3.60449219 13.4306641,3.68945312 13.5888672,3.70703125 C14.1279297,3.8125 14.5498047,3.90625 14.8544922,3.98828125 C15.1591797,4.0703125 15.3862305,4.18457031 15.5356445,4.33105469 C15.6850586,4.47753906 15.7963867,4.69580078 15.8696289,4.98583984 C15.9428711,5.27587891 16.0146484,5.67871094 16.0849609,6.19433594 C16.0908203,6.26464844 16.1171875,6.32177734 16.1640625,6.36572266 C16.2109375,6.40966797 16.2666016,6.43164062 16.3310547,6.43164062 Z M16.2475586,22.8452148 C16.7176403,22.7160423 17.171076,22.525431 17.6078658,22.273381 L17.736,22.195 L17.8017807,22.1878204 C18.2872391,22.1214447 18.7652588,21.9875488 19.2358398,21.7861328 C19.9887695,21.4638672 20.6933594,20.9746094 21.3496094,20.3183594 C22.4394531,19.2226562 23.0722656,17.9995117 23.2480469,16.6489258 C23.4238281,15.2983398 23.1396484,13.8320312 22.3955078,12.25 L20.4091797,8.06640625 C20.2275391,7.6796875 19.9902344,7.38671875 19.6972656,7.1875 C19.4042969,6.98828125 19.0761719,6.88867188 18.7128906,6.88867188 C18.5722656,6.88867188 18.4140625,6.91503906 18.2382812,6.96777344 C18.0625,7.02050781 17.8925781,7.10693359 17.7285156,7.22705078 C17.5644531,7.34716797 17.4296875,7.50683594 17.3242188,7.70605469 L17.2672656,7.83085937 L17.2672656,7.83085937 L17.261,7.85 L17.2512695,7.84316406 C17.1516602,7.79160156 17.0485352,7.75175781 16.9418945,7.72363281 C16.675293,7.65332031 16.4086914,7.65625 16.1420898,7.73242188 C15.8754883,7.80859375 15.6367188,7.95507812 15.4257813,8.171875 L15.416,8.182 L12.8769531,5.64941406 C12.5136719,5.28613281 12.1210938,5.10302734 11.6992188,5.10006073 C11.2773438,5.09716797 10.8935547,5.26855469 10.5478516,5.61425781 C10.4189453,5.73730469 10.3208008,5.87792969 10.253418,6.03613281 L10.225,6.115 L10.2146912,6.10774994 C9.97390747,5.96515656 9.72167969,5.89294434 9.45800781,5.89111328 C9.03613281,5.88818359 8.65234375,6.05957031 8.30664062,6.40527344 C8.17773438,6.53417969 8.078125,6.67626953 8.0078125,6.83154297 C7.9375,6.98681641 7.90234375,7.14648438 7.90234375,7.31054688 C7.5390625,7.03515625 7.16845703,6.90332031 6.79052734,6.91503906 C6.41259766,6.92675781 6.06835938,7.08789062 5.7578125,7.3984375 C5.45898438,7.69726562 5.30224609,8.03857422 5.28759766,8.42236328 C5.27294922,8.80615234 5.39746094,9.17382812 5.66113281,9.52539062 C5.33886719,9.53125 5.05761719,9.65429688 4.81738281,9.89453125 C4.49511719,10.2167969 4.33984375,10.5800781 4.3515625,10.984375 C4.36328125,11.3886719 4.5390625,11.7636719 4.87890625,12.109375 L5.57324219,12.7949219 C5.40332031,12.7949219 5.23486328,12.831543 5.06787109,12.9047852 C4.90087891,12.9780273 4.75,13.0820312 4.61523438,13.2167969 C4.40429688,13.4277344 4.26660156,13.6650391 4.20214844,13.9287109 C4.13769531,14.1923828 4.14648438,14.4589844 4.22851562,14.7285156 C4.31054688,14.9980469 4.46875,15.2470703 4.703125,15.4755859 L10.046875,20.8193359 C11.0136719,21.7861328 12.0302734,22.4365234 13.0966797,22.7705078 C14.1630859,23.1044922 15.2133789,23.1293945 16.2475586,22.8452148 Z M15.6191406,11.4238281 L11.057,6.863 L11.0797656,6.77212891 C11.1107031,6.68107422 11.1648438,6.596875 11.2421875,6.51953125 C11.3710938,6.390625 11.5161133,6.32910156 11.6772461,6.33496094 C11.8383789,6.34082031 11.9863281,6.41113281 12.1210938,6.54589844 L15.008,9.434 L15.0366211,9.59423828 C15.0616862,9.70654297 15.0976562,9.82128906 15.1445312,9.93847656 L15.7333984,11.3359375 C15.7509766,11.3769531 15.7480469,11.4091797 15.7246094,11.4326172 C15.6894531,11.4619141 15.6542969,11.4589844 15.6191406,11.4238281 Z M13.3164063,21.597168 C12.4492188,21.3012695 11.5996094,20.734375 10.7675781,19.8964844 L5.60839844,14.7460937 C5.47949219,14.6113281 5.41210937,14.4633789 5.40625,14.3022461 C5.40039062,14.1411133 5.46191406,13.9960937 5.59082031,13.8671875 C5.71972656,13.7441406 5.86767578,13.6826172 6.03466797,13.6826172 C6.20166016,13.6826172 6.34960938,13.7470703 6.47851562,13.8759766 L9.65136719,17.0576172 C9.76855469,17.1689453 9.90185547,17.2202148 10.0512695,17.2114258 C10.2006836,17.2026367 10.3251953,17.1484375 10.4248047,17.0488281 C10.5302734,16.9433594 10.5888672,16.8144531 10.6005859,16.6621094 C10.6123047,16.5097656 10.5595703,16.3779297 10.4423828,16.2666016 L5.69628906,11.5117187 C5.56152344,11.3828125 5.49121094,11.237793 5.48535156,11.0766602 C5.47949219,10.9155273 5.54101562,10.7705078 5.66992187,10.6416016 C5.79882812,10.5126953 5.94677734,10.4482422 6.11376953,10.4482422 C6.28076172,10.4482422 6.43164062,10.515625 6.56640625,10.6503906 L10.9960938,15.0800781 C11.1074219,15.1972656 11.237793,15.2514648 11.387207,15.2426758 C11.5366211,15.2338867 11.6640625,15.1767578 11.7695312,15.0712891 C11.875,14.9658203 11.9321289,14.8383789 11.940918,14.6889648 C11.949707,14.5395508 11.8984375,14.40625 11.7871094,14.2890625 L6.58398438,9.0859375 C6.44921875,8.95703125 6.38037109,8.80908203 6.37744141,8.64208984 C6.37451172,8.47509766 6.4375,8.32714844 6.56640625,8.19824219 C6.68945312,8.06933594 6.83447266,8.0078125 7.00146484,8.01367188 C7.16845703,8.01953125 7.31933594,8.08984375 7.45410156,8.22460937 L12.6572266,13.4277344 C12.7626953,13.5332031 12.8901367,13.5844727 13.0395508,13.581543 C13.1889648,13.5786133 13.3164063,13.5244141 13.421875,13.4189453 C13.5332031,13.3076172 13.5917969,13.1757812 13.5976562,13.0234375 C13.6035156,12.8710937 13.5507812,12.7421875 13.4394531,12.6367187 L9.00976562,8.19824219 C8.875,8.06933594 8.80615234,7.92285156 8.80322266,7.75878906 C8.80029297,7.59472656 8.86328125,7.44824219 8.9921875,7.31933594 C9.12109375,7.19042969 9.26757812,7.12744141 9.43164062,7.13027344 C9.59570312,7.13330078 9.74511719,7.20214844 9.87988281,7.33691406 L15.9970703,13.4541016 C16.1494141,13.6064453 16.3105469,13.684082 16.4804688,13.6870117 C16.6503906,13.6899414 16.7998047,13.6269531 16.9287109,13.4980469 C17.0400391,13.3867187 17.1132813,13.2548828 17.1484375,13.1025391 C17.1835938,12.9501953 17.1572266,12.7626953 17.0693359,12.5400391 L15.9707031,9.6484375 C15.8945313,9.45507812 15.8857422,9.28222656 15.9443359,9.12988281 C16.0029297,8.97753906 16.1083984,8.86621094 16.2607422,8.79589844 C16.4248047,8.71972656 16.5786133,8.71972656 16.722168,8.79589844 C16.8657227,8.87207031 16.984375,9.01269531 17.078125,9.21777344 L19.1171875,13.5332031 C19.8027344,14.96875 20.0415039,16.234375 19.8334961,17.3300781 C19.6254883,18.4257812 19.0878906,19.4072266 18.2207031,20.2744141 C17.4882813,21.0068359 16.7045898,21.484375 15.8696289,21.7070312 C15.034668,21.9296875 14.1835938,21.8930664 13.3164063,21.597168 Z M20.21,19.714 L20.340918,19.4886719 C20.6956055,18.8417969 20.919043,18.1574219 21.0112305,17.4355469 C21.184082,16.0820312 20.8955078,14.6171875 20.1455078,13.0410156 L18.179,8.892 L18.1513672,8.77050781 C18.1448568,8.72884115 18.1416016,8.6875 18.1416016,8.64648438 C18.1416016,8.50585938 18.1958008,8.37695312 18.3041992,8.25976562 C18.4125977,8.14257812 18.5605469,8.08398438 18.7480469,8.08398438 C19.0234375,8.08398438 19.2314453,8.23339844 19.3720703,8.53222656 L21.3671875,12.7421875 C22.046875,14.1777344 22.2841797,15.4433594 22.0791016,16.5390625 C21.8740234,17.6347656 21.3349609,18.6132812 20.4619141,19.4746094 L20.2239583,19.7020399 L20.2239583,19.7020399 L20.21,19.714 Z M5.66113281,23.6142578 C5.78417969,23.6142578 5.85742188,23.546875 5.88085938,23.4121094 C5.96289062,22.984375 6.03613281,22.6474609 6.10058594,22.4013672 C6.16503906,22.1552734 6.25878906,21.9692383 6.38183594,21.8432617 C6.50488281,21.7172852 6.69091797,21.6176758 6.93994141,21.5444336 C7.18896484,21.4711914 7.5390625,21.3935547 7.99023438,21.3115234 C8.125,21.2763672 8.19238281,21.2001953 8.19238281,21.0830078 C8.19238281,20.9599609 8.125,20.8867188 7.99023438,20.8632812 C7.54492188,20.7753906 7.19921875,20.6933594 6.953125,20.6171875 C6.70703125,20.5410156 6.52246094,20.4399414 6.39941406,20.3139648 C6.27636719,20.1879883 6.18261719,20.003418 6.11816406,19.7602539 C6.05371094,19.5170898 5.97460938,19.1816406 5.88085938,18.7539062 C5.85742188,18.6191406 5.78417969,18.5517578 5.66113281,18.5517578 C5.54980469,18.5517578 5.4765625,18.6191406 5.44140625,18.7539062 C5.35351562,19.1816406 5.27734375,19.5170898 5.21289062,19.7602539 C5.1484375,20.003418 5.05615234,20.1879883 4.93603516,20.3139648 C4.81591797,20.4399414 4.6328125,20.5410156 4.38671875,20.6171875 C4.140625,20.6933594 3.79199219,20.7753906 3.34082031,20.8632812 C3.20605469,20.8867188 3.13867188,20.9599609 3.13867188,21.0830078 C3.13867188,21.2001953 3.20605469,21.2763672 3.34082031,21.3115234 C3.79199219,21.3994141 4.14208984,21.4799805 4.39111328,21.5532227 C4.64013672,21.6264648 4.82617188,21.7260742 4.94921875,21.8520508 C5.07226562,21.9780273 5.16455078,22.1625977 5.22607422,22.4057617 C5.28759766,22.6489258 5.359375,22.984375 5.44140625,23.4121094 C5.4765625,23.546875 5.54980469,23.6142578 5.66113281,23.6142578 Z" id="􀲮"></path>
        </g>
    </g>
</svg>
