<?xml version="1.0" encoding="UTF-8"?>
<svg width="29px" height="18px" viewBox="0 0 29 18" version="1.1" xmlns="http://www.w3.org/2000/svg" xmlns:xlink="http://www.w3.org/1999/xlink">
    <title>􀝅</title>
    <g id="Page-1" stroke="none" stroke-width="1" fill="none" fill-rule="evenodd">
        <g id="icon/mall-detail-page/停车" transform="translate(-2.000000, -4.000000)" fill="#5E5E69" fill-rule="nonzero">
            <path d="M4.45605469,20.9599609 C4.79003906,20.9599609 5.06689453,20.8486328 5.28662109,20.6259766 C5.50634766,20.4033203 5.61621094,20.1308594 5.61621094,19.8085938 L5.616,18.334 L5.87988281,18.3496094 L5.87988281,18.3496094 C6.61230469,18.390625 7.40039062,18.4257812 8.24414062,18.4550781 L8.24414062,14.7460938 C8.24414062,14.2539062 8.28076172,13.8203125 8.35400391,13.4453125 C8.42724609,13.0703125 8.54589844,12.7202148 8.70996094,12.3950195 C8.87402344,12.0698242 9.08789062,11.7285156 9.3515625,11.3710938 L10.0898438,10.4130859 L10.2128906,10.0263672 C9.6328125,10.0322266 9.10986328,10.0439453 8.64404297,10.0615234 C8.17822266,10.0791016 7.75195313,10.0981445 7.36523438,10.1186523 C6.97851562,10.1391602 6.61230469,10.1611328 6.26660156,10.1845703 C6.09667969,10.1962891 5.97802734,10.1699219 5.91064453,10.1054688 C5.84326172,10.0410156 5.83007812,9.92675781 5.87109375,9.76269531 C5.94140625,9.44042969 6.03076172,9.10058594 6.13916016,8.74316406 C6.24755859,8.38574219 6.36035156,8.05322266 6.47753906,7.74560547 C6.59472656,7.43798828 6.70019531,7.19921875 6.79394531,7.02929688 C6.91113281,6.82421875 7.04296875,6.671875 7.18945312,6.57226562 C7.3359375,6.47265625 7.52636719,6.40820312 7.76074219,6.37890625 C8.04199219,6.33789062 8.47705078,6.30419922 9.06591797,6.27783203 C9.65478516,6.25146484 10.4443359,6.23535156 11.4345703,6.22949219 C11.5400391,5.90722656 11.6674805,5.61865234 11.8168945,5.36376953 C11.9663086,5.10888672 12.1699219,4.8671875 12.4277344,4.63867188 C11.1972656,4.65039062 10.190918,4.66796875 9.40869141,4.69140625 C8.62646484,4.71484375 8.10351562,4.74121094 7.83984375,4.77050781 C7.25390625,4.84082031 6.74121094,5.02685547 6.30175781,5.32861328 C5.86230469,5.63037109 5.52539062,6.02734375 5.29101562,6.51953125 C5.18554688,6.73632812 5.05957031,7.04980469 4.91308594,7.45996094 C4.76660156,7.87011719 4.61865234,8.33300781 4.46923828,8.84863281 C4.31982422,9.36425781 4.19238281,9.88574219 4.08691406,10.4130859 L3.35742188,11.3710938 C3.08789062,11.7285156 2.87109375,12.0698242 2.70703125,12.3950195 C2.54296875,12.7202148 2.42431641,13.0703125 2.35107422,13.4453125 C2.27783203,13.8203125 2.24121094,14.2539062 2.24121094,14.7460938 L2.25,16.2929688 L2.25,19.8173828 C2.25,20.1396484 2.36279297,20.4106445 2.58837891,20.6303711 C2.81396484,20.8500977 3.09375,20.9599609 3.42773438,20.9599609 L4.45605469,20.9599609 Z M11.6542969,21.1357422 C11.9824219,21.1357422 12.2578125,21.0244141 12.4804688,20.8017578 C12.703125,20.5791016 12.8144531,20.3066406 12.8144531,19.984375 L12.814,18.51 L12.9243164,18.5166016 L12.9243164,18.5166016 C13.5834961,18.5576172 14.3071289,18.5927734 15.0952148,18.6220703 C15.8833008,18.6513672 16.6875,18.6748047 17.5078125,18.6923828 C18.328125,18.7099609 19.1103516,18.71875 19.8544922,18.71875 C20.5927734,18.71875 21.3720703,18.7099609 22.1923828,18.6923828 C23.0126953,18.6748047 23.8168945,18.6513672 24.6049805,18.6220703 C25.3930664,18.5927734 26.1181641,18.5576172 26.7802734,18.5166016 L26.885,18.51 L26.8857422,19.984375 C26.8857422,20.3066406 26.9970703,20.5791016 27.2197266,20.8017578 C27.4423828,21.0244141 27.7177734,21.1357422 28.0458984,21.1357422 L29.0830078,21.1357422 C29.4111328,21.1357422 29.6879883,21.0244141 29.9135742,20.8017578 C30.1391602,20.5791016 30.2519531,20.3066406 30.2519531,19.984375 L30.2519531,16.1875 L30.2519531,14.9130859 C30.2519531,14.4208984 30.215332,13.9873047 30.1420898,13.6123047 C30.0688477,13.2373047 29.9501953,12.887207 29.7861328,12.5620117 C29.6220703,12.2368164 29.4052734,11.8984375 29.1357422,11.546875 L28.3974609,10.5888672 C28.2861328,10.0615234 28.1557617,9.54003906 28.0063477,9.02441406 C27.8569336,8.50878906 27.7075195,8.04589844 27.5581055,7.63574219 C27.4086914,7.22558594 27.2841797,6.91210938 27.1845703,6.6953125 C26.9501953,6.203125 26.6132812,5.81054688 26.1738281,5.51757812 C25.734375,5.22460938 25.2216797,5.03710938 24.6357422,4.95507812 C24.4423828,4.93164062 24.112793,4.91113281 23.6469727,4.89355469 C23.1811523,4.87597656 22.621582,4.86132812 21.9682617,4.84960938 C21.3149414,4.83789062 20.6103516,4.83203125 19.8544922,4.83203125 C19.0927734,4.83203125 18.3852539,4.83789062 17.7319336,4.84960938 C17.0786133,4.86132812 16.5205078,4.87597656 16.0576172,4.89355469 C15.5947266,4.91113281 15.2636719,4.93164062 15.0644531,4.95507812 C14.4785156,5.02539062 13.9658203,5.20996094 13.5263672,5.50878906 C13.0869141,5.80761719 12.75,6.203125 12.515625,6.6953125 C12.4160156,6.91210938 12.2915039,7.22558594 12.1420898,7.63574219 C11.9926758,8.04589844 11.8432617,8.50878906 11.6938477,9.02441406 C11.5444336,9.54003906 11.4140625,10.0615234 11.3027344,10.5888672 L10.5644531,11.546875 C10.2949219,11.8984375 10.078125,12.2368164 9.9140625,12.5620117 C9.75,12.887207 9.63134766,13.2373047 9.55810547,13.6123047 C9.48486328,13.9873047 9.44824219,14.4208984 9.44824219,14.9130859 L9.44824219,16.4599609 L9.44824219,19.984375 C9.44824219,20.3066406 9.56103516,20.5791016 9.78662109,20.8017578 C10.012207,21.0244141 10.2890625,21.1357422 10.6171875,21.1357422 L11.6542969,21.1357422 Z M26.2265625,10.28125 C25.7402344,10.2519531 25.2070312,10.2226562 24.6269531,10.1933594 C24.046875,10.1640625 23.3701172,10.140625 22.5966797,10.1230469 C21.8232422,10.1054688 20.9091797,10.0966797 19.8544922,10.0966797 C18.7939453,10.0966797 17.8769531,10.1054688 17.1035156,10.1230469 C16.3300781,10.140625 15.6533203,10.1640625 15.0732422,10.1933594 C14.4931641,10.2226562 13.9599609,10.2519531 13.4736328,10.28125 C13.3037109,10.2929688 13.1865234,10.2666016 13.1220703,10.2021484 C13.0576172,10.1376953 13.0429688,10.0234375 13.078125,9.859375 C13.1484375,9.53710938 13.237793,9.19726562 13.3461914,8.83984375 C13.4545898,8.48242188 13.5673828,8.14990234 13.6845703,7.84228516 C13.8017578,7.53466797 13.9072266,7.29589844 14.0009766,7.12597656 C14.1240234,6.92089844 14.2573242,6.76855469 14.4008789,6.66894531 C14.5444336,6.56933594 14.7363281,6.50488281 14.9765625,6.47558594 C15.3046875,6.42871094 15.8598633,6.39208984 16.6420898,6.36572266 C17.3460938,6.34199219 18.2838428,6.32894043 19.4553369,6.32656738 L19.8544922,6.32617188 C21.2138672,6.32617188 22.2832031,6.33789062 23.0625,6.36132812 C23.8417969,6.38476562 24.3984375,6.42285156 24.7324219,6.47558594 C24.9667969,6.51074219 25.1557617,6.57666016 25.2993164,6.67333984 C25.4428711,6.77001953 25.5761719,6.92089844 25.6992188,7.12597656 C25.7988281,7.29589844 25.9057617,7.53466797 26.0200195,7.84228516 C26.1342773,8.14990234 26.2441406,8.48242188 26.3496094,8.83984375 C26.4550781,9.19726562 26.5458984,9.53710938 26.6220703,9.859375 C26.6630859,10.0234375 26.6499023,10.1376953 26.5825195,10.2021484 C26.5151367,10.2666016 26.3964844,10.2929688 26.2265625,10.28125 Z M5.5546875,15.6953125 C5.18554688,15.6953125 4.87792969,15.5722656 4.63183594,15.3261719 C4.38574219,15.0800781 4.26269531,14.7724609 4.26269531,14.4033203 C4.26269531,14.0400391 4.38574219,13.7353516 4.63183594,13.4892578 C4.87792969,13.2431641 5.18554688,13.1201172 5.5546875,13.1201172 C5.91796875,13.1201172 6.22265625,13.2431641 6.46875,13.4892578 C6.71484375,13.7353516 6.83789062,14.0400391 6.83789062,14.4033203 C6.83789062,14.7724609 6.71484375,15.0800781 6.46875,15.3261719 C6.22265625,15.5722656 5.91796875,15.6953125 5.5546875,15.6953125 Z M13.5087891,16.3457031 C13.1103516,16.3457031 12.7763672,16.2109375 12.5068359,15.9414062 C12.2373047,15.671875 12.1025391,15.3349609 12.1025391,14.9306641 C12.1025391,14.5322266 12.2373047,14.1982422 12.5068359,13.9287109 C12.7763672,13.6591797 13.1103516,13.5244141 13.5087891,13.5244141 C13.9130859,13.5244141 14.25,13.6591797 14.5195312,13.9287109 C14.7890625,14.1982422 14.9238281,14.5322266 14.9238281,14.9306641 C14.9238281,15.3349609 14.7890625,15.671875 14.5195312,15.9414062 C14.25,16.2109375 13.9130859,16.3457031 13.5087891,16.3457031 Z M26.1914062,16.3457031 C25.7871094,16.3457031 25.4501953,16.2109375 25.1806641,15.9414062 C24.9111328,15.671875 24.7763672,15.3349609 24.7763672,14.9306641 C24.7763672,14.5322266 24.9111328,14.1982422 25.1806641,13.9287109 C25.4501953,13.6591797 25.7871094,13.5244141 26.1914062,13.5244141 C26.5898438,13.5244141 26.9238281,13.6591797 27.1933594,13.9287109 C27.4628906,14.1982422 27.5976562,14.5322266 27.5976562,14.9306641 C27.5976562,15.3349609 27.4628906,15.671875 27.1933594,15.9414062 C26.9238281,16.2109375 26.5898438,16.3457031 26.1914062,16.3457031 Z M22.1748047,16.0029297 L17.5253906,16.0029297 C17.2265625,16.0029297 16.9819336,15.9077148 16.7915039,15.7172852 C16.6010742,15.5268555 16.5058594,15.2822266 16.5058594,14.9833984 C16.5058594,14.6845703 16.6010742,14.4399414 16.7915039,14.2495117 C16.9819336,14.059082 17.2265625,13.9638672 17.5253906,13.9638672 L22.1748047,13.9638672 C22.4736328,13.9638672 22.7182617,14.059082 22.9086914,14.2495117 C23.0991211,14.4399414 23.1943359,14.6845703 23.1943359,14.9833984 C23.1943359,15.2822266 23.0991211,15.5268555 22.9086914,15.7172852 C22.7182617,15.9077148 22.4736328,16.0029297 22.1748047,16.0029297 Z" id="􀝅"></path>
        </g>
    </g>
</svg>
