<?xml version="1.0" encoding="UTF-8"?>
<svg width="19px" height="19px" viewBox="0 0 19 19" version="1.1" xmlns="http://www.w3.org/2000/svg" xmlns:xlink="http://www.w3.org/1999/xlink">
    <title>􀝼</title>
    <g id="Page-1" stroke="none" stroke-width="1" fill="none" fill-rule="evenodd">
        <g id="icon/mall-detail-page/水上taxi" transform="translate(-4.000000, -3.000000)" fill="#5E5E69" fill-rule="nonzero">
            <path d="M13.2197266,21.6191406 C14.4443359,21.6191406 15.597168,21.3847656 16.6782227,20.9160156 C17.7592773,20.4472656 18.7128906,19.7998047 19.5390625,18.9736328 C20.3652344,18.1474609 21.0126953,17.1938477 21.4814453,16.112793 C21.9501953,15.0317383 22.1845703,13.8789062 22.1845703,12.6542969 C22.1845703,11.4296875 21.9501953,10.2768555 21.4814453,9.19580078 C21.0126953,8.11474609 20.3652344,7.16113281 19.5390625,6.33496094 C18.7128906,5.50878906 17.7578125,4.86132812 16.6738281,4.39257812 C15.5898438,3.92382812 14.4355469,3.68945312 13.2109375,3.68945312 C11.9863281,3.68945312 10.8334961,3.92382812 9.75244141,4.39257812 C8.67138672,4.86132812 7.71923828,5.50878906 6.89599609,6.33496094 C6.07275391,7.16113281 5.42675781,8.11474609 4.95800781,9.19580078 C4.48925781,10.2768555 4.25488281,11.4296875 4.25488281,12.6542969 C4.25488281,13.8789062 4.48925781,15.0317383 4.95800781,16.112793 C5.42675781,17.1938477 6.07421875,18.1474609 6.90039062,18.9736328 C7.7265625,19.7998047 8.68017578,20.4472656 9.76123047,20.9160156 C10.8422852,21.3847656 11.9951172,21.6191406 13.2197266,21.6191406 Z M13.2197266,20.125 C12.1826172,20.125 11.2128906,19.9316406 10.3105469,19.5449219 C9.40820312,19.1582031 8.61572266,18.6235352 7.93310547,17.940918 C7.25048828,17.2583008 6.71728516,16.4658203 6.33349609,15.5634766 C5.94970703,14.6611328 5.7578125,13.6914062 5.7578125,12.6542969 C5.7578125,11.6171875 5.94970703,10.6474609 6.33349609,9.74511719 C6.71728516,8.84277344 7.24902344,8.04882812 7.92871094,7.36328125 C8.60839844,6.67773438 9.39941406,6.14306641 10.3017578,5.75927734 C11.2041016,5.37548828 12.1738281,5.18359375 13.2109375,5.18359375 C14.2480469,5.18359375 15.2177734,5.37548828 16.1201172,5.75927734 C17.0224609,6.14306641 17.8164062,6.67773438 18.5019531,7.36328125 C19.1875,8.04882812 19.7236328,8.84277344 20.1103516,9.74511719 C20.4970703,10.6474609 20.6904297,11.6171875 20.6904297,12.6542969 C20.6904297,13.6914062 20.4985352,14.6611328 20.1147461,15.5634766 C19.730957,16.4658203 19.1977539,17.2583008 18.5151367,17.940918 C17.8325195,18.6235352 17.0385742,19.1582031 16.1333008,19.5449219 C15.2280273,19.9316406 14.2568359,20.125 13.2197266,20.125 Z M14.0107422,18.6220703 C14.3857422,18.6220703 14.5732422,18.4140625 14.5732422,17.9980469 L14.5732422,11.7226562 C14.5732422,11.5644531 14.640625,11.4853516 14.7753906,11.4853516 C14.9042969,11.4853516 14.96875,11.5644531 14.96875,11.7226562 L14.96875,14.2890625 C14.96875,14.4707031 15.0200195,14.6098633 15.1225586,14.706543 C15.2250977,14.8032227 15.3525391,14.8515625 15.5048828,14.8515625 C15.8505859,14.8515625 16.0234375,14.6640625 16.0234375,14.2890625 L16.0234375,11.8544922 C16.0234375,11.0693359 15.7949219,10.5390625 15.3378906,10.2636719 C14.8808594,9.98828125 14.1748047,9.85058594 13.2197266,9.85058594 L12.4814453,9.85058594 C12.2998047,9.85058594 12.1547852,9.83154297 12.0463867,9.79345703 C11.9379883,9.75537109 11.8164062,9.68945312 11.6816406,9.59570312 L10.9082031,9.05957031 L10.7939453,7.30175781 C10.7822266,7.12011719 10.7250977,6.98388672 10.6225586,6.89306641 C10.5200195,6.80224609 10.3925781,6.76269531 10.2402344,6.77441406 C10.0820312,6.78613281 9.95751953,6.84179688 9.86669922,6.94140625 C9.77587891,7.04101562 9.73632812,7.1875 9.74804688,7.38085938 L9.86230469,9.12988281 C9.87402344,9.31738281 9.91943359,9.47265625 9.99853516,9.59570312 C10.0776367,9.71875 10.1787109,9.82421875 10.3017578,9.91210938 L11.5761719,10.84375 C11.734375,10.9609375 11.8134766,11.1162109 11.8134766,11.3095703 L11.8134766,17.9980469 C11.8134766,18.203125 11.8691406,18.3583984 11.9804688,18.4638672 C12.0917969,18.5693359 12.2324219,18.6220703 12.4023438,18.6220703 C12.7832031,18.6220703 12.9736328,18.4140625 12.9736328,17.9980469 L12.9736328,14.4033203 C12.9736328,14.2099609 13.0527344,14.1132812 13.2109375,14.1132812 C13.3515625,14.1132812 13.421875,14.2099609 13.421875,14.4033203 L13.421875,17.9980469 C13.421875,18.203125 13.4775391,18.3583984 13.5888672,18.4638672 C13.7001953,18.5693359 13.8408203,18.6220703 14.0107422,18.6220703 Z M13.2197266,9.34082031 C13.5361328,9.34082031 13.8056641,9.22802734 14.0283203,9.00244141 C14.2509766,8.77685547 14.3623047,8.51171875 14.3623047,8.20703125 C14.3623047,7.88476562 14.2509766,7.61230469 14.0283203,7.38964844 C13.8056641,7.16699219 13.5361328,7.05566406 13.2197266,7.05566406 C12.8974609,7.05566406 12.6264648,7.16699219 12.4067383,7.38964844 C12.1870117,7.61230469 12.0771484,7.88476562 12.0771484,8.20703125 C12.0771484,8.50585938 12.1870117,8.76953125 12.4067383,8.99804688 C12.6264648,9.2265625 12.8974609,9.34082031 13.2197266,9.34082031 Z" id="􀝼"></path>
        </g>
    </g>
</svg>
