<?xml version="1.0" encoding="UTF-8"?>
<svg width="15px" height="16px" viewBox="0 0 15 16" version="1.1" xmlns="http://www.w3.org/2000/svg" xmlns:xlink="http://www.w3.org/1999/xlink">
    <title>􀋡</title>
    <g id="UX" stroke="none" stroke-width="1" fill="none" fill-rule="evenodd">
        <g id="活动页/活动说明" transform="translate(-103.000000, -1530.000000)" fill="#ABABB8" fill-rule="nonzero">
            <g id="brand-card/xs" transform="translate(12.000000, 1471.500000)">
                <g id="mini-icon/􀮃" transform="translate(89.000000, 57.000000)">
                    <path d="M8.39941406,16.9907389 C8.88704427,16.988444 9.36783854,16.7503255 9.84179688,16.2763672 L16.1582031,9.94628906 C16.3268229,9.78222656 16.4487305,9.63183594 16.5239258,9.49511719 C16.5991211,9.35839844 16.6469727,9.21028646 16.6674805,9.05078125 C16.6879883,8.89127604 16.6982422,8.6953125 16.6982422,8.46289062 L16.6982422,6.00195312 C16.6982422,5.76953125 16.6777344,5.578125 16.6367188,5.42773438 C16.5957031,5.27734375 16.5262044,5.13834635 16.4282227,5.01074219 C16.3302409,4.88313802 16.1946615,4.73502604 16.0214844,4.56640625 L14.5449219,3.07617188 C14.3717448,2.91210938 14.2213542,2.78108724 14.09375,2.68310547 C13.9661458,2.5851237 13.8282878,2.51448568 13.6801758,2.47119141 C13.5320638,2.42789714 13.3417969,2.40625 13.109375,2.40625 L10.6484375,2.40625 C10.4114583,2.40625 10.2143555,2.41650391 10.0571289,2.43701172 C9.89990234,2.45751953 9.75292969,2.50651042 9.61621094,2.58398438 C9.47949219,2.66145833 9.32682292,2.78222656 9.15820312,2.94628906 L2.828125,9.26953125 C2.35416667,9.74348958 2.11604818,10.2254232 2.11375348,10.715332 C2.11149089,11.2052409 2.35188802,11.6917318 2.83496094,12.1748047 L6.94335938,16.2763672 C7.42643229,16.7548828 7.91178385,16.9930013 8.39941406,16.9907389 Z M7.70214844,15.3945312 L3.71679688,11.4023438 C3.48893229,11.1744792 3.37613932,10.9443359 3.37838413,10.7119141 C3.38069661,10.4794922 3.49121094,10.2539062 3.70996094,10.0351562 L9.98535156,3.76660156 C10.0491536,3.70279948 10.117513,3.65152995 10.1904297,3.61279297 C10.2633464,3.57405599 10.3544922,3.5546875 10.4638672,3.5546875 L13.1230469,3.5546875 C13.296224,3.5546875 13.4511719,3.62532552 13.5878906,3.76660156 L15.3447266,5.51660156 C15.4814453,5.65332031 15.5498047,5.81054688 15.5498047,5.98828125 L15.5498047,8.64746094 C15.5498047,8.75683594 15.5315755,8.84798177 15.4951172,8.92089844 C15.4586589,8.9938151 15.4085286,9.06217448 15.3447266,9.12597656 L9.07617188,15.4013672 C8.62044271,15.8525391 8.1624349,15.8502604 7.70214844,15.3945312 Z M12.3232422,7.69042969 C12.5830078,7.69042969 12.7994792,7.60270182 12.9726562,7.42724609 C13.1458333,7.25179036 13.2324219,7.03417969 13.2324219,6.77441406 C13.2324219,6.52376302 13.1458333,6.31070964 12.9726562,6.13525391 C12.7994792,5.95979818 12.5830078,5.87207031 12.3232422,5.87207031 C12.0680339,5.87207031 11.8538411,5.95979818 11.6806641,6.13525391 C11.507487,6.31070964 11.4208984,6.52376302 11.4208984,6.77441406 C11.4208984,7.03417969 11.507487,7.25179036 11.6806641,7.42724609 C11.8538411,7.60270182 12.0680339,7.69042969 12.3232422,7.69042969 Z" id="􀋡"></path>
                </g>
            </g>
        </g>
    </g>
</svg>