<?xml version="1.0" encoding="UTF-8"?>
<svg width="27px" height="27px" viewBox="0 0 27 27" version="1.1" xmlns="http://www.w3.org/2000/svg" xmlns:xlink="http://www.w3.org/1999/xlink">
    <title>􀲛</title>
    <g id="Page-1" stroke="none" stroke-width="1" fill="none" fill-rule="evenodd">
        <g id="icon/mall-card-xl/-􀲛" transform="translate(-4.000000, -4.000000)" fill="#ABABB8" fill-rule="nonzero">
            <path d="M17.5,30.7045898 C24.737793,30.7045898 30.7231445,24.7192383 30.7231445,17.4814453 C30.7231445,10.2304688 24.737793,4.25830078 17.4868164,4.25830078 C10.2490234,4.25830078 4.27685547,10.2304688 4.27685547,17.4814453 C4.27685547,24.7192383 10.262207,30.7045898 17.5,30.7045898 Z M17.5,28.9907227 C11.1191406,28.9907227 5.99072266,23.8491211 5.99072266,17.4814453 C5.99072266,11.1005859 11.1191406,5.95898438 17.4868164,5.95898438 C23.8676758,5.95898438 29.0092773,11.1005859 29.0224609,17.4814453 C29.0224609,23.8491211 23.8808594,28.9907227 17.5,28.9907227 Z M13.3867188,25.4838867 C13.5449219,25.4838867 13.6240234,25.4311523 13.703125,25.2993164 L14.0854492,24.6928711 L20.9145508,24.6928711 L21.2836914,25.2993164 C21.362793,25.4311523 21.4550781,25.4838867 21.6264648,25.4838867 L21.9296875,25.4838867 C22.1933594,25.4838867 22.2988281,25.2333984 22.1538086,25.0092773 L20.8354492,22.8603516 L20.9804688,22.8603516 C22.2988281,22.8603516 22.9316406,21.9902344 22.9316406,20.8696289 L22.9316406,16.4267578 C22.9316406,14.5415039 22.6547852,12.722168 22.3911133,11.6938477 C22.140625,10.6787109 21.4155273,9.95361328 20.3740234,9.83496094 C19.8598633,9.76904297 18.7788086,9.68994141 17.4868164,9.68994141 C16.2080078,9.68994141 15.1269531,9.76904297 14.5996094,9.83496094 C13.5712891,9.95361328 12.8461914,10.6787109 12.5957031,11.6938477 C12.3320312,12.722168 12.0551758,14.5415039 12.0551758,16.4267578 L12.0551758,20.8696289 C12.0551758,21.9902344 12.6879883,22.8603516 14.0063477,22.8603516 L14.1645508,22.8603516 L12.8330078,25.0092773 C12.6879883,25.2333984 12.8066406,25.4838867 13.0571289,25.4838867 L13.3867188,25.4838867 Z M19.1875,11.6938477 L15.7993164,11.6938477 C15.5883789,11.6938477 15.456543,11.5488281 15.456543,11.3378906 C15.456543,11.1401367 15.5883789,11.0083008 15.7993164,11.0083008 L19.1875,11.0083008 C19.3984375,11.0083008 19.5302734,11.1401367 19.5302734,11.3378906 C19.5302734,11.5488281 19.3984375,11.6938477 19.1875,11.6938477 Z M17.4868164,18.7075195 C16.0629883,18.6943359 14.7973633,18.6416016 14.059082,18.5625 C13.637207,18.5229492 13.4394531,18.2460938 13.4394531,17.8505859 L13.4394531,16.3081055 C13.4394531,15.0820312 13.5844727,14.0405273 13.703125,13.4472656 C13.769043,13.1176758 13.9667969,12.9067383 14.2700195,12.8671875 C15.0214844,12.7880859 15.9443359,12.7353516 17.4868164,12.7353516 C19.0292969,12.722168 19.9521484,12.7880859 20.6640625,12.8671875 C20.9936523,12.9067383 21.2045898,13.1176758 21.2705078,13.4472656 C21.4023438,14.0405273 21.5341797,15.0820312 21.5341797,16.3081055 L21.5341797,17.8505859 C21.5341797,18.2460938 21.3364258,18.5229492 20.9277344,18.5625 C19.9521484,18.6547852 18.6865234,18.7075195 17.4868164,18.7075195 Z M20.5058594,21.4760742 C20.03125,21.4760742 19.6621094,21.1069336 19.6621094,20.6323242 C19.6621094,20.1577148 20.03125,19.7885742 20.5058594,19.7885742 C20.9936523,19.7885742 21.3496094,20.1577148 21.3496094,20.6323242 C21.3496094,21.1069336 20.9804688,21.4760742 20.5058594,21.4760742 Z M14.480957,21.4628906 C13.9931641,21.4628906 13.637207,21.1201172 13.637207,20.6323242 C13.637207,20.1577148 13.9931641,19.8017578 14.480957,19.8017578 C14.9555664,19.8017578 15.3115234,20.1577148 15.3115234,20.6323242 C15.3115234,21.1201172 14.9423828,21.4628906 14.480957,21.4628906 Z M20.4003906,23.8623047 L14.5996094,23.8623047 L15.2192383,22.8603516 L19.7807617,22.8603516 L20.4003906,23.8623047 Z" id="􀲛"></path>
        </g>
    </g>
</svg>
