<?xml version="1.0" encoding="UTF-8"?>
<svg width="21px" height="15px" viewBox="0 0 21 15" version="1.1" xmlns="http://www.w3.org/2000/svg" xmlns:xlink="http://www.w3.org/1999/xlink">
    <title>􀙇</title>
    <g id="Page-1" stroke="none" stroke-width="1" fill="none" fill-rule="evenodd">
        <g id="icon/mall-detail-page/wifi" transform="translate(-3.000000, -5.000000)" fill="#5E5E69" fill-rule="nonzero">
            <path d="M4.72509766,11.6391602 C4.83935547,11.6362305 4.9375,11.5908203 5.01953125,11.5029297 C6.09765625,10.3544922 7.33544922,9.48291016 8.73291016,8.88818359 C10.1303711,8.29345703 11.6259766,7.99609375 13.2197266,7.99609375 C14.8251953,7.99609375 16.328125,8.29492188 17.7285156,8.89257812 C19.1289062,9.49023438 20.3652344,10.3632812 21.4375,11.5117188 C21.5195312,11.59375 21.6147461,11.6333008 21.7231445,11.6303711 C21.831543,11.6274414 21.9267578,11.5820312 22.0087891,11.4941406 L23.2216797,10.28125 C23.2978516,10.1992188 23.3374023,10.1142578 23.3405231,10.0263672 C23.3432617,9.93847656 23.3125,9.85644531 23.2480469,9.78027344 C22.5625,8.93066406 21.6953125,8.17333984 20.6464844,7.50830078 C19.5976562,6.84326172 18.4375,6.31884766 17.1660156,5.93505859 C15.8945312,5.55126953 14.5791016,5.359375 13.2197266,5.359375 C11.8603516,5.359375 10.5449219,5.54980469 9.2734375,5.93066406 C8.00195312,6.31152344 6.84179688,6.8359375 5.79296875,7.50390625 C4.74414062,8.171875 3.87695312,8.93066406 3.19140625,9.78027344 C3.1328125,9.85644531 3.10498047,9.93847656 3.10791016,10.0263672 C3.11083984,10.1142578 3.14746094,10.1992188 3.21777344,10.28125 L4.43066406,11.5117188 C4.51269531,11.5996094 4.61083984,11.6420898 4.72509766,11.6391602 Z M18.0712891,15.3085938 C18.1767578,15.3085938 18.2734375,15.2646484 18.3613281,15.1767578 L19.7236328,13.8232422 C19.7939453,13.7529297 19.8320312,13.6723633 19.8378906,13.581543 C19.84375,13.4907227 19.8144531,13.4072266 19.75,13.3310547 C19.3105469,12.7861328 18.7553711,12.2998047 18.0844727,11.8720703 C17.4135742,11.4443359 16.6635742,11.105957 15.8344727,10.8569336 C15.0053711,10.6079102 14.1337891,10.4833984 13.2197266,10.4833984 C12.3056641,10.4833984 11.4355469,10.6079102 10.609375,10.8569336 C9.78320312,11.105957 9.03466797,11.4443359 8.36376953,11.8720703 C7.69287109,12.2998047 7.13476562,12.7861328 6.68945312,13.3310547 C6.625,13.4072266 6.59570312,13.4892578 6.6015625,13.5771484 C6.60742188,13.6650391 6.6484375,13.7470703 6.72460938,13.8232422 L8.08691406,15.1855469 C8.18066406,15.2734375 8.28173828,15.3129883 8.39013672,15.3041992 C8.49853516,15.2954102 8.59667969,15.2441406 8.68457031,15.1503906 C9.21191406,14.5644531 9.87988281,14.0810547 10.6884766,13.7001953 C11.4970703,13.3193359 12.3408203,13.1318359 13.2197266,13.1376953 C14.1103516,13.1318359 14.9599609,13.3237305 15.7685547,13.7133789 C16.5771484,14.1030273 17.2509766,14.5908203 17.7900391,15.1767578 C17.8720703,15.2646484 17.9658203,15.3085938 18.0712891,15.3085938 Z M13.2197266,19.9667969 C13.3193359,19.9667969 13.4189453,19.9389648 13.5185547,19.8833008 C13.6181641,19.8276367 13.7529297,19.7148438 13.9228516,19.5449219 L16.0673828,17.4882812 C16.1376953,17.4238281 16.1787109,17.3461914 16.1904297,17.2553711 C16.2021484,17.1645508 16.1787109,17.0810547 16.1201172,17.0048828 C15.8271484,16.6357422 15.4257812,16.3134766 14.9160156,16.0380859 C14.40625,15.7626953 13.8408203,15.625 13.2197266,15.625 C12.5869141,15.625 12.0126953,15.7685547 11.4970703,16.0556641 C10.9814453,16.3427734 10.5830078,16.6767578 10.3017578,17.0576172 C10.2548828,17.1279297 10.2387695,17.2011719 10.253418,17.2773438 C10.2680664,17.3535156 10.3105469,17.4238281 10.3808594,17.4882812 L12.5166016,19.5449219 C12.6865234,19.7089844 12.8227539,19.8203125 12.925293,19.8789062 C13.027832,19.9375 13.1259766,19.9667969 13.2197266,19.9667969 Z" id="􀙇"></path>
        </g>
    </g>
</svg>
